{
  "_metadata_": {
    "Source file": "output_variables_dreq01.00.31_CANOE__BACKUP_26Mar2021_18h26m06sUTC.xlsx output_variables_dreq01.00.31__BACKUP_26Mar2021_18h26m02sUTC.xlsx", 
    "MIP table": "Oclim"
  }, 
  "difmxybo": {
    "CMOR Name": "difmxybo", 
    "CMOR Name, any freq": "difmxybo", 
    "CCCma check": null, 
    "CCCma hist file": " N/A  for orca1 ", 
    "CCCma hist var names": null, 
    "CCCma hist var frequency": null, 
    "CCCma TS var name": " ", 
    "CCCma diag file": null, 
    "CCCma units": " ", 
    "CCCma optional deck": " ", 
    "CCCma comment": " ", 
    "CCCma NetCDF comment": null, 
    "CCCma target vertical grid": null, 
    "CCCma target horizontal grid": null, 
    "Include only for": null, 
    "Exclude for": null, 
    "long_name": "Ocean Momentum XY Biharmonic Diffusivity", 
    "units": "m4 s-1", 
    "description": "Lateral biharmonic viscosity applied to the momentum equations.", 
    "comment": "Lateral biharmonic viscosity applied to the momentum equations.", 
    "out_name": "difmxybo", 
    "standard_name": "ocean_momentum_xy_biharmonic_diffusivity", 
    "cell_methods": "area: mean time: mean within years time: mean over years", 
    "positive": null, 
    "type": "real", 
    "dimensions": "longitude latitude olevel time2", 
    "modeling_realm": "ocean", 
    "frequency": "monC", 
    "cell_measures": "area: areacello volume: volcello", 
    "valid_min": null, 
    "valid_max": null, 
    "ok_min_mean_abs": null, 
    "ok_max_mean_abs": null, 
    "priority": 3.0, 
    "MIPs (requesting)": "  CMIP(3), FAFMIP(3,3,3), HighResMIP(3,3), LUMIP(3), RFMIP(3,3,3,3)", 
    "experiments": "  abrupt-4xCO2 (FAFMIP:3,RFMIP:3), 1pctCO2 (FAFMIP:3,RFMIP:3), historical (CMIP:3,HighResMIP:3,LUMIP:3,RFMIP:3), piControl (FAFMIP:3,HighResMIP:3,RFMIP:3)"
  }, 
  "difmxybo2d": {
    "CMOR Name": "difmxybo2d", 
    "CMOR Name, any freq": "difmxybo2d", 
    "CCCma check": null, 
    "CCCma hist file": null, 
    "CCCma hist var names": null, 
    "CCCma hist var frequency": null, 
    "CCCma TS var name": null, 
    "CCCma diag file": null, 
    "CCCma units": null, 
    "CCCma optional deck": null, 
    "CCCma comment": null, 
    "CCCma NetCDF comment": null, 
    "CCCma target vertical grid": null, 
    "CCCma target horizontal grid": null, 
    "Include only for": null, 
    "Exclude for": null, 
    "long_name": "Ocean Momentum XY Biharmonic Diffusivity", 
    "units": "m4 s-1", 
    "description": "Lateral biharmonic viscosity applied to the momentum equations.", 
    "comment": "Lateral biharmonic viscosity applied to the momentum equations.", 
    "out_name": "difmxybo", 
    "standard_name": "ocean_momentum_xy_biharmonic_diffusivity", 
    "cell_methods": "area: mean time: mean within years time: mean over years", 
    "positive": null, 
    "type": "real", 
    "dimensions": "longitude latitude time2", 
    "modeling_realm": "ocean", 
    "frequency": "monC", 
    "cell_measures": "area: areacello", 
    "valid_min": null, 
    "valid_max": null, 
    "ok_min_mean_abs": null, 
    "ok_max_mean_abs": null, 
    "priority": 3.0, 
    "MIPs (requesting)": "  CMIP(3), FAFMIP(3,3,3), HighResMIP(3,3), LUMIP(3), RFMIP(3,3,3,3)", 
    "experiments": "  abrupt-4xCO2 (FAFMIP:3,RFMIP:3), 1pctCO2 (FAFMIP:3,RFMIP:3), historical (CMIP:3,HighResMIP:3,LUMIP:3,RFMIP:3), piControl (FAFMIP:3,HighResMIP:3,RFMIP:3)"
  }, 
  "difmxylo": {
    "CMOR Name": "difmxylo", 
    "CMOR Name, any freq": "difmxylo", 
    "CCCma check": null, 
    "CCCma hist file": " ", 
    "CCCma hist var names": null, 
    "CCCma hist var frequency": null, 
    "CCCma TS var name": " ", 
    "CCCma diag file": null, 
    "CCCma units": " ", 
    "CCCma optional deck": " ", 
    "CCCma comment": " ", 
    "CCCma NetCDF comment": null, 
    "CCCma target vertical grid": null, 
    "CCCma target horizontal grid": null, 
    "Include only for": null, 
    "Exclude for": null, 
    "long_name": "Ocean Momentum XY Laplacian Diffusivity", 
    "units": "m2 s-1", 
    "description": "Lateral Laplacian viscosity applied to the momentum equations.", 
    "comment": "Lateral Laplacian viscosity applied to the momentum equations.", 
    "out_name": "difmxylo", 
    "standard_name": "ocean_momentum_xy_laplacian_diffusivity", 
    "cell_methods": "area: mean time: mean within years time: mean over years", 
    "positive": null, 
    "type": "real", 
    "dimensions": "longitude latitude olevel time2", 
    "modeling_realm": "ocean", 
    "frequency": "monC", 
    "cell_measures": "area: areacello volume: volcello", 
    "valid_min": null, 
    "valid_max": null, 
    "ok_min_mean_abs": null, 
    "ok_max_mean_abs": null, 
    "priority": 3.0, 
    "MIPs (requesting)": "  CMIP(3), FAFMIP(3,3,3), HighResMIP(3,3), LUMIP(3), RFMIP(3,3,3,3)", 
    "experiments": "  abrupt-4xCO2 (FAFMIP:3,RFMIP:3), 1pctCO2 (FAFMIP:3,RFMIP:3), historical (CMIP:3,HighResMIP:3,LUMIP:3,RFMIP:3), piControl (FAFMIP:3,HighResMIP:3,RFMIP:3)"
  }, 
  "difmxylo2d": {
    "CMOR Name": "difmxylo2d", 
    "CMOR Name, any freq": "difmxylo2d", 
    "CCCma check": null, 
    "CCCma hist file": null, 
    "CCCma hist var names": null, 
    "CCCma hist var frequency": null, 
    "CCCma TS var name": null, 
    "CCCma diag file": null, 
    "CCCma units": null, 
    "CCCma optional deck": null, 
    "CCCma comment": null, 
    "CCCma NetCDF comment": null, 
    "CCCma target vertical grid": null, 
    "CCCma target horizontal grid": null, 
    "Include only for": null, 
    "Exclude for": null, 
    "long_name": "Ocean Momentum XY Laplacian Diffusivity", 
    "units": "m2 s-1", 
    "description": "Lateral Laplacian viscosity applied to the momentum equations.", 
    "comment": "Lateral Laplacian viscosity applied to the momentum equations.", 
    "out_name": "difmxylo", 
    "standard_name": "ocean_momentum_xy_laplacian_diffusivity", 
    "cell_methods": "area: mean time: mean within years time: mean over years", 
    "positive": null, 
    "type": "real", 
    "dimensions": "longitude latitude time2", 
    "modeling_realm": "ocean", 
    "frequency": "monC", 
    "cell_measures": "area: areacello", 
    "valid_min": null, 
    "valid_max": null, 
    "ok_min_mean_abs": null, 
    "ok_max_mean_abs": null, 
    "priority": 3.0, 
    "MIPs (requesting)": "  CMIP(3), FAFMIP(3,3,3), HighResMIP(3,3), LUMIP(3), RFMIP(3,3,3,3)", 
    "experiments": "  abrupt-4xCO2 (FAFMIP:3,RFMIP:3), 1pctCO2 (FAFMIP:3,RFMIP:3), historical (CMIP:3,HighResMIP:3,LUMIP:3,RFMIP:3), piControl (FAFMIP:3,HighResMIP:3,RFMIP:3)"
  }, 
  "diftrbbo": {
    "CMOR Name": "diftrbbo", 
    "CMOR Name, any freq": "diftrbbo", 
    "CCCma check": null, 
    "CCCma hist file": null, 
    "CCCma hist var names": null, 
    "CCCma hist var frequency": null, 
    "CCCma TS var name": null, 
    "CCCma diag file": null, 
    "CCCma units": null, 
    "CCCma optional deck": null, 
    "CCCma comment": null, 
    "CCCma NetCDF comment": null, 
    "CCCma target vertical grid": null, 
    "CCCma target horizontal grid": null, 
    "Include only for": null, 
    "Exclude for": null, 
    "long_name": "Ocean Tracer Bolus Biharmonic Diffusivity", 
    "units": "m4 s-1", 
    "description": "Parameterized mesoscale eddy advection occurs on a spatial scale of many tens of kilometres and an evolutionary time of weeks(sometimes called bolus advection). Reference: James C. McWilliams 2016, Submesoscale currents in the ocean, Proceedings of the Royal Society A: Mathematical, Physical and Engineering Sciences, volume 472, issue 2189. DOI: 10.1098/rspa.2016.0117. ", 
    "comment": "Parameterized mesoscale eddy advection occurs on a spatial scale of many tens of kilometres and an evolutionary time of weeks(sometimes called bolus advection). Reference: James C. McWilliams 2016, Submesoscale currents in the ocean, Proceedings of the Royal Society A: Mathematical, Physical and Engineering Sciences, volume 472, issue 2189. DOI: 10.1098/rspa.2016.0117. ", 
    "out_name": "diftrbbo", 
    "standard_name": "ocean_tracer_biharmonic_diffusivity_due_to_parameterized_mesoscale_eddy_advection", 
    "cell_methods": "area: mean time: mean within years time: mean over years", 
    "positive": null, 
    "type": "real", 
    "dimensions": "longitude latitude olevel time2", 
    "modeling_realm": "ocean", 
    "frequency": "monC", 
    "cell_measures": "area: areacello volume: volcello", 
    "valid_min": null, 
    "valid_max": null, 
    "ok_min_mean_abs": null, 
    "ok_max_mean_abs": null, 
    "priority": 3.0, 
    "MIPs (requesting)": "  CMIP(3), FAFMIP(3,3,3), HighResMIP(3,3), LUMIP(3), RFMIP(3,3,3,3)", 
    "experiments": "  abrupt-4xCO2 (FAFMIP:3,RFMIP:3), 1pctCO2 (FAFMIP:3,RFMIP:3), historical (CMIP:3,HighResMIP:3,LUMIP:3,RFMIP:3), piControl (FAFMIP:3,HighResMIP:3,RFMIP:3)"
  }, 
  "diftrbbo2d": {
    "CMOR Name": "diftrbbo2d", 
    "CMOR Name, any freq": "diftrbbo2d", 
    "CCCma check": null, 
    "CCCma hist file": null, 
    "CCCma hist var names": null, 
    "CCCma hist var frequency": null, 
    "CCCma TS var name": null, 
    "CCCma diag file": null, 
    "CCCma units": null, 
    "CCCma optional deck": null, 
    "CCCma comment": null, 
    "CCCma NetCDF comment": null, 
    "CCCma target vertical grid": null, 
    "CCCma target horizontal grid": null, 
    "Include only for": null, 
    "Exclude for": null, 
    "long_name": "Ocean Tracer Bolus Biharmonic Diffusivity", 
    "units": "m4 s-1", 
    "description": "Parameterized mesoscale eddy advection occurs on a spatial scale of many tens of kilometres and an evolutionary time of weeks(sometimes called bolus advection). Reference: James C. McWilliams 2016, Submesoscale currents in the ocean, Proceedings of the Royal Society A: Mathematical, Physical and Engineering Sciences, volume 472, issue 2189. DOI: 10.1098/rspa.2016.0117. ", 
    "comment": "Parameterized mesoscale eddy advection occurs on a spatial scale of many tens of kilometres and an evolutionary time of weeks(sometimes called bolus advection). Reference: James C. McWilliams 2016, Submesoscale currents in the ocean, Proceedings of the Royal Society A: Mathematical, Physical and Engineering Sciences, volume 472, issue 2189. DOI: 10.1098/rspa.2016.0117. ", 
    "out_name": "diftrbbo", 
    "standard_name": "ocean_tracer_biharmonic_diffusivity_due_to_parameterized_mesoscale_eddy_advection", 
    "cell_methods": "area: mean time: mean within years time: mean over years", 
    "positive": null, 
    "type": "real", 
    "dimensions": "longitude latitude time2", 
    "modeling_realm": "ocean", 
    "frequency": "monC", 
    "cell_measures": "area: areacello", 
    "valid_min": null, 
    "valid_max": null, 
    "ok_min_mean_abs": null, 
    "ok_max_mean_abs": null, 
    "priority": 3.0, 
    "MIPs (requesting)": "  CMIP(3), FAFMIP(3,3,3), HighResMIP(3,3), LUMIP(3), RFMIP(3,3,3,3)", 
    "experiments": "  abrupt-4xCO2 (FAFMIP:3,RFMIP:3), 1pctCO2 (FAFMIP:3,RFMIP:3), historical (CMIP:3,HighResMIP:3,LUMIP:3,RFMIP:3), piControl (FAFMIP:3,HighResMIP:3,RFMIP:3)"
  }, 
  "diftrblo": {
    "CMOR Name": "diftrblo", 
    "CMOR Name, any freq": "diftrblo", 
    "CCCma check": null, 
    "CCCma hist file": null, 
    "CCCma hist var names": null, 
    "CCCma hist var frequency": null, 
    "CCCma TS var name": null, 
    "CCCma diag file": null, 
    "CCCma units": null, 
    "CCCma optional deck": null, 
    "CCCma comment": null, 
    "CCCma NetCDF comment": null, 
    "CCCma target vertical grid": null, 
    "CCCma target horizontal grid": null, 
    "Include only for": null, 
    "Exclude for": null, 
    "long_name": "Ocean Tracer Diffusivity Due to Parameterized Mesoscale Advection", 
    "units": "m2 s-1", 
    "description": "Ocean tracer diffusivity associated with parameterized eddy-induced advective transport. Sometimes this diffusivity is called the 'thickness' diffusivity. For CMIP5, this diagnostic was called 'ocean tracer bolus laplacian diffusivity'.  The CMIP6 name is physically more relevant.", 
    "comment": "Ocean tracer diffusivity associated with parameterized eddy-induced advective transport. Sometimes this diffusivity is called the 'thickness' diffusivity. For CMIP5, this diagnostic was called 'ocean tracer bolus laplacian diffusivity'.  The CMIP6 name is physically more relevant.", 
    "out_name": "diftrblo", 
    "standard_name": "ocean_tracer_laplacian_diffusivity_due_to_parameterized_mesoscale_eddy_advection", 
    "cell_methods": "area: mean time: mean within years time: mean over years", 
    "positive": null, 
    "type": "real", 
    "dimensions": "longitude latitude olevel time2", 
    "modeling_realm": "ocean", 
    "frequency": "monC", 
    "cell_measures": "area: areacello volume: volcello", 
    "valid_min": null, 
    "valid_max": null, 
    "ok_min_mean_abs": null, 
    "ok_max_mean_abs": null, 
    "priority": 3.0, 
    "MIPs (requesting)": "  CMIP(3), FAFMIP(3,3,3), HighResMIP(3,3), LUMIP(3), RFMIP(3,3,3,3)", 
    "experiments": "  abrupt-4xCO2 (FAFMIP:3,RFMIP:3), 1pctCO2 (FAFMIP:3,RFMIP:3), historical (CMIP:3,HighResMIP:3,LUMIP:3,RFMIP:3), piControl (FAFMIP:3,HighResMIP:3,RFMIP:3)"
  }, 
  "diftrblo2d": {
    "CMOR Name": "diftrblo2d", 
    "CMOR Name, any freq": "diftrblo2d", 
    "CCCma check": null, 
    "CCCma hist file": null, 
    "CCCma hist var names": null, 
    "CCCma hist var frequency": null, 
    "CCCma TS var name": null, 
    "CCCma diag file": null, 
    "CCCma units": null, 
    "CCCma optional deck": null, 
    "CCCma comment": null, 
    "CCCma NetCDF comment": null, 
    "CCCma target vertical grid": null, 
    "CCCma target horizontal grid": null, 
    "Include only for": null, 
    "Exclude for": null, 
    "long_name": "Ocean Tracer Diffusivity Due to Parameterized Mesoscale Advection", 
    "units": "m2 s-1", 
    "description": "Ocean tracer diffusivity associated with parameterized eddy-induced advective transport. Sometimes this diffusivity is called the 'thickness' diffusivity. For CMIP5, this diagnostic was called 'ocean tracer bolus laplacian diffusivity'.  The CMIP6 name is physically more relevant.", 
    "comment": "Ocean tracer diffusivity associated with parameterized eddy-induced advective transport. Sometimes this diffusivity is called the 'thickness' diffusivity. For CMIP5, this diagnostic was called 'ocean tracer bolus laplacian diffusivity'.  The CMIP6 name is physically more relevant.", 
    "out_name": "diftrblo", 
    "standard_name": "ocean_tracer_laplacian_diffusivity_due_to_parameterized_mesoscale_eddy_advection", 
    "cell_methods": "area: mean time: mean within years time: mean over years", 
    "positive": null, 
    "type": "real", 
    "dimensions": "longitude latitude time2", 
    "modeling_realm": "ocean", 
    "frequency": "monC", 
    "cell_measures": "area: areacello", 
    "valid_min": null, 
    "valid_max": null, 
    "ok_min_mean_abs": null, 
    "ok_max_mean_abs": null, 
    "priority": 3.0, 
    "MIPs (requesting)": "  CMIP(3), FAFMIP(3,3,3), HighResMIP(3,3), LUMIP(3), RFMIP(3,3,3,3)", 
    "experiments": "  abrupt-4xCO2 (FAFMIP:3,RFMIP:3), 1pctCO2 (FAFMIP:3,RFMIP:3), historical (CMIP:3,HighResMIP:3,LUMIP:3,RFMIP:3), piControl (FAFMIP:3,HighResMIP:3,RFMIP:3)"
  }, 
  "diftrebo": {
    "CMOR Name": "diftrebo", 
    "CMOR Name, any freq": "diftrebo", 
    "CCCma check": null, 
    "CCCma hist file": null, 
    "CCCma hist var names": null, 
    "CCCma hist var frequency": null, 
    "CCCma TS var name": null, 
    "CCCma diag file": null, 
    "CCCma units": null, 
    "CCCma optional deck": null, 
    "CCCma comment": null, 
    "CCCma NetCDF comment": null, 
    "CCCma target vertical grid": null, 
    "CCCma target horizontal grid": null, 
    "Include only for": null, 
    "Exclude for": null, 
    "long_name": "Ocean Tracer Epineutral Biharmonic Diffusivity", 
    "units": "m4 s-1", 
    "description": "Epineutral diffusivity means a lateral diffusivity along a either a neutral or isopycnal density surface due to motion which is not resolved on the grid scale of an ocean model. The type of density surface is dependent on the model formulation. ", 
    "comment": "Epineutral diffusivity means a lateral diffusivity along a either a neutral or isopycnal density surface due to motion which is not resolved on the grid scale of an ocean model. The type of density surface is dependent on the model formulation. ", 
    "out_name": "diftrebo", 
    "standard_name": "ocean_tracer_epineutral_biharmonic_diffusivity", 
    "cell_methods": "area: mean time: mean within years time: mean over years", 
    "positive": null, 
    "type": "real", 
    "dimensions": "longitude latitude olevel time2", 
    "modeling_realm": "ocean", 
    "frequency": "monC", 
    "cell_measures": "area: areacello volume: volcello", 
    "valid_min": null, 
    "valid_max": null, 
    "ok_min_mean_abs": null, 
    "ok_max_mean_abs": null, 
    "priority": 3.0, 
    "MIPs (requesting)": "  CMIP(3), FAFMIP(3,3,3), HighResMIP(3,3), LUMIP(3), RFMIP(3,3,3,3)", 
    "experiments": "  abrupt-4xCO2 (FAFMIP:3,RFMIP:3), 1pctCO2 (FAFMIP:3,RFMIP:3), historical (CMIP:3,HighResMIP:3,LUMIP:3,RFMIP:3), piControl (FAFMIP:3,HighResMIP:3,RFMIP:3)"
  }, 
  "diftrebo2d": {
    "CMOR Name": "diftrebo2d", 
    "CMOR Name, any freq": "diftrebo2d", 
    "CCCma check": null, 
    "CCCma hist file": null, 
    "CCCma hist var names": null, 
    "CCCma hist var frequency": null, 
    "CCCma TS var name": null, 
    "CCCma diag file": null, 
    "CCCma units": null, 
    "CCCma optional deck": null, 
    "CCCma comment": null, 
    "CCCma NetCDF comment": null, 
    "CCCma target vertical grid": null, 
    "CCCma target horizontal grid": null, 
    "Include only for": null, 
    "Exclude for": null, 
    "long_name": "Ocean Tracer Epineutral Biharmonic Diffusivity", 
    "units": "m4 s-1", 
    "description": "Epineutral diffusivity means a lateral diffusivity along a either a neutral or isopycnal density surface due to motion which is not resolved on the grid scale of an ocean model. The type of density surface is dependent on the model formulation. ", 
    "comment": "Epineutral diffusivity means a lateral diffusivity along a either a neutral or isopycnal density surface due to motion which is not resolved on the grid scale of an ocean model. The type of density surface is dependent on the model formulation. ", 
    "out_name": "diftrebo", 
    "standard_name": "ocean_tracer_epineutral_biharmonic_diffusivity", 
    "cell_methods": "area: mean time: mean within years time: mean over years", 
    "positive": null, 
    "type": "real", 
    "dimensions": "longitude latitude time2", 
    "modeling_realm": "ocean", 
    "frequency": "monC", 
    "cell_measures": "area: areacello", 
    "valid_min": null, 
    "valid_max": null, 
    "ok_min_mean_abs": null, 
    "ok_max_mean_abs": null, 
    "priority": 3.0, 
    "MIPs (requesting)": "  CMIP(3), FAFMIP(3,3,3), HighResMIP(3,3), LUMIP(3), RFMIP(3,3,3,3)", 
    "experiments": "  abrupt-4xCO2 (FAFMIP:3,RFMIP:3), 1pctCO2 (FAFMIP:3,RFMIP:3), historical (CMIP:3,HighResMIP:3,LUMIP:3,RFMIP:3), piControl (FAFMIP:3,HighResMIP:3,RFMIP:3)"
  }, 
  "diftrelo": {
    "CMOR Name": "diftrelo", 
    "CMOR Name, any freq": "diftrelo", 
    "CCCma check": null, 
    "CCCma hist file": " ", 
    "CCCma hist var names": null, 
    "CCCma hist var frequency": null, 
    "CCCma TS var name": " ", 
    "CCCma diag file": null, 
    "CCCma units": " ", 
    "CCCma optional deck": " ", 
    "CCCma comment": " see ln_traldf_iso? ", 
    "CCCma NetCDF comment": null, 
    "CCCma target vertical grid": null, 
    "CCCma target horizontal grid": null, 
    "Include only for": null, 
    "Exclude for": null, 
    "long_name": "Ocean Tracer Epineutral Laplacian Diffusivity", 
    "units": "m2 s-1", 
    "description": "Ocean tracer diffusivity associated with parameterized eddy-induced diffusive transport oriented along neutral or isopycnal directions. Sometimes this diffusivity is called the neutral diffusivity or isopycnal diffusivity or Redi diffusivity.", 
    "comment": "Ocean tracer diffusivity associated with parameterized eddy-induced diffusive transport oriented along neutral or isopycnal directions. Sometimes this diffusivity is called the neutral diffusivity or isopycnal diffusivity or Redi diffusivity.", 
    "out_name": "diftrelo", 
    "standard_name": "ocean_tracer_epineutral_laplacian_diffusivity", 
    "cell_methods": "area: mean time: mean within years time: mean over years", 
    "positive": null, 
    "type": "real", 
    "dimensions": "longitude latitude olevel time2", 
    "modeling_realm": "ocean", 
    "frequency": "monC", 
    "cell_measures": "area: areacello volume: volcello", 
    "valid_min": null, 
    "valid_max": null, 
    "ok_min_mean_abs": null, 
    "ok_max_mean_abs": null, 
    "priority": 3.0, 
    "MIPs (requesting)": "  CMIP(3), FAFMIP(3,3,3), HighResMIP(3,3), LUMIP(3), RFMIP(3,3,3,3)", 
    "experiments": "  abrupt-4xCO2 (FAFMIP:3,RFMIP:3), 1pctCO2 (FAFMIP:3,RFMIP:3), historical (CMIP:3,HighResMIP:3,LUMIP:3,RFMIP:3), piControl (FAFMIP:3,HighResMIP:3,RFMIP:3)"
  }, 
  "diftrelo2d": {
    "CMOR Name": "diftrelo2d", 
    "CMOR Name, any freq": "diftrelo2d", 
    "CCCma check": "DY", 
    "CCCma hist file": "1m_grid_w", 
    "CCCma hist var names": null, 
    "CCCma hist var frequency": null, 
    "CCCma TS var name": "soleahtw", 
    "CCCma diag file": "1m_grid_w", 
    "CCCma units": "m2 s-1", 
    "CCCma optional deck": null, 
    "CCCma comment": null, 
    "CCCma NetCDF comment": "Do not change in time.", 
    "CCCma target vertical grid": null, 
    "CCCma target horizontal grid": null, 
    "Include only for": null, 
    "Exclude for": null, 
    "long_name": "Ocean Tracer Epineutral Laplacian Diffusivity", 
    "units": "m2 s-1", 
    "description": "Ocean tracer diffusivity associated with parameterized eddy-induced diffusive transport oriented along neutral or isopycnal directions. Sometimes this diffusivity is called the neutral diffusivity or isopycnal diffusivity or Redi diffusivity.", 
    "comment": "Ocean tracer diffusivity associated with parameterized eddy-induced diffusive transport oriented along neutral or isopycnal directions. Sometimes this diffusivity is called the neutral diffusivity or isopycnal diffusivity or Redi diffusivity.", 
    "out_name": "diftrelo", 
    "standard_name": "ocean_tracer_epineutral_laplacian_diffusivity", 
    "cell_methods": "area: mean time: mean within years time: mean over years", 
    "positive": null, 
    "type": "real", 
    "dimensions": "longitude latitude time2", 
    "modeling_realm": "ocean", 
    "frequency": "monC", 
    "cell_measures": "area: areacello", 
    "valid_min": null, 
    "valid_max": null, 
    "ok_min_mean_abs": null, 
    "ok_max_mean_abs": null, 
    "priority": 3.0, 
    "MIPs (requesting)": "  CMIP(3), FAFMIP(3,3,3), HighResMIP(3,3), LUMIP(3), RFMIP(3,3,3,3)", 
    "experiments": "  abrupt-4xCO2 (FAFMIP:3,RFMIP:3), 1pctCO2 (FAFMIP:3,RFMIP:3), historical (CMIP:3,HighResMIP:3,LUMIP:3,RFMIP:3), piControl (FAFMIP:3,HighResMIP:3,RFMIP:3)"
  }, 
  "diftrxybo": {
    "CMOR Name": "diftrxybo", 
    "CMOR Name, any freq": "diftrxybo", 
    "CCCma check": null, 
    "CCCma hist file": null, 
    "CCCma hist var names": null, 
    "CCCma hist var frequency": null, 
    "CCCma TS var name": null, 
    "CCCma diag file": null, 
    "CCCma units": null, 
    "CCCma optional deck": null, 
    "CCCma comment": null, 
    "CCCma NetCDF comment": null, 
    "CCCma target vertical grid": null, 
    "CCCma target horizontal grid": null, 
    "Include only for": null, 
    "Exclude for": null, 
    "long_name": "Ocean Tracer XY Biharmonic Diffusivity", 
    "units": "m4 s-1", 
    "description": "Diffusivity is also sometimes known as the coefficient of diffusion. Diffusion occurs as a result of a gradient in the spatial distribution of mass concentration, temperature or momentum.  The diffusivity may be very different in the vertical and horizontal directions. \"xy diffusivity\" means the lateral along_coordinate component of diffusivity due to motion which is not resolved on the grid scale of the model.  xy diffusivities are used in some ocean models to counteract the numerical instabilities inherent in certain implementations of rotated neutral diffusion. \"biharmonic diffusivity\" means diffusivity for use with a biharmonic diffusion operator.", 
    "comment": "Diffusivity is also sometimes known as the coefficient of diffusion. Diffusion occurs as a result of a gradient in the spatial distribution of mass concentration, temperature or momentum.  The diffusivity may be very different in the vertical and horizontal directions. \"xy diffusivity\" means the lateral along_coordinate component of diffusivity due to motion which is not resolved on the grid scale of the model.  xy diffusivities are used in some ocean models to counteract the numerical instabilities inherent in certain implementations of rotated neutral diffusion. \"biharmonic diffusivity\" means diffusivity for use with a biharmonic diffusion operator.", 
    "out_name": "diftrxybo", 
    "standard_name": "ocean_tracer_xy_biharmonic_diffusivity", 
    "cell_methods": "area: mean time: mean within years time: mean over years", 
    "positive": null, 
    "type": "real", 
    "dimensions": "longitude latitude olevel time2", 
    "modeling_realm": "ocean", 
    "frequency": "monC", 
    "cell_measures": "area: areacello volume: volcello", 
    "valid_min": null, 
    "valid_max": null, 
    "ok_min_mean_abs": null, 
    "ok_max_mean_abs": null, 
    "priority": 3.0, 
    "MIPs (requesting)": "  CMIP(3), FAFMIP(3,3,3), HighResMIP(3,3), LUMIP(3), RFMIP(3,3,3,3)", 
    "experiments": "  abrupt-4xCO2 (FAFMIP:3,RFMIP:3), 1pctCO2 (FAFMIP:3,RFMIP:3), historical (CMIP:3,HighResMIP:3,LUMIP:3,RFMIP:3), piControl (FAFMIP:3,HighResMIP:3,RFMIP:3)"
  }, 
  "diftrxybo2d": {
    "CMOR Name": "diftrxybo2d", 
    "CMOR Name, any freq": "diftrxybo2d", 
    "CCCma check": null, 
    "CCCma hist file": null, 
    "CCCma hist var names": null, 
    "CCCma hist var frequency": null, 
    "CCCma TS var name": null, 
    "CCCma diag file": null, 
    "CCCma units": null, 
    "CCCma optional deck": null, 
    "CCCma comment": null, 
    "CCCma NetCDF comment": null, 
    "CCCma target vertical grid": null, 
    "CCCma target horizontal grid": null, 
    "Include only for": null, 
    "Exclude for": null, 
    "long_name": "Ocean Tracer XY Biharmonic Diffusivity", 
    "units": "m4 s-1", 
    "description": "Diffusivity is also sometimes known as the coefficient of diffusion. Diffusion occurs as a result of a gradient in the spatial distribution of mass concentration, temperature or momentum.  The diffusivity may be very different in the vertical and horizontal directions. \"xy diffusivity\" means the lateral along_coordinate component of diffusivity due to motion which is not resolved on the grid scale of the model.  xy diffusivities are used in some ocean models to counteract the numerical instabilities inherent in certain implementations of rotated neutral diffusion. \"biharmonic diffusivity\" means diffusivity for use with a biharmonic diffusion operator.", 
    "comment": "Diffusivity is also sometimes known as the coefficient of diffusion. Diffusion occurs as a result of a gradient in the spatial distribution of mass concentration, temperature or momentum.  The diffusivity may be very different in the vertical and horizontal directions. \"xy diffusivity\" means the lateral along_coordinate component of diffusivity due to motion which is not resolved on the grid scale of the model.  xy diffusivities are used in some ocean models to counteract the numerical instabilities inherent in certain implementations of rotated neutral diffusion. \"biharmonic diffusivity\" means diffusivity for use with a biharmonic diffusion operator.", 
    "out_name": "diftrxybo", 
    "standard_name": "ocean_tracer_xy_biharmonic_diffusivity", 
    "cell_methods": "area: mean time: mean within years time: mean over years", 
    "positive": null, 
    "type": "real", 
    "dimensions": "longitude latitude time2", 
    "modeling_realm": "ocean", 
    "frequency": "monC", 
    "cell_measures": "area: areacello", 
    "valid_min": null, 
    "valid_max": null, 
    "ok_min_mean_abs": null, 
    "ok_max_mean_abs": null, 
    "priority": 3.0, 
    "MIPs (requesting)": "  CMIP(3), FAFMIP(3,3,3), HighResMIP(3,3), LUMIP(3), RFMIP(3,3,3,3)", 
    "experiments": "  abrupt-4xCO2 (FAFMIP:3,RFMIP:3), 1pctCO2 (FAFMIP:3,RFMIP:3), historical (CMIP:3,HighResMIP:3,LUMIP:3,RFMIP:3), piControl (FAFMIP:3,HighResMIP:3,RFMIP:3)"
  }, 
  "diftrxylo": {
    "CMOR Name": "diftrxylo", 
    "CMOR Name, any freq": "diftrxylo", 
    "CCCma check": null, 
    "CCCma hist file": null, 
    "CCCma hist var names": null, 
    "CCCma hist var frequency": null, 
    "CCCma TS var name": null, 
    "CCCma diag file": null, 
    "CCCma units": null, 
    "CCCma optional deck": null, 
    "CCCma comment": null, 
    "CCCma NetCDF comment": null, 
    "CCCma target vertical grid": null, 
    "CCCma target horizontal grid": null, 
    "Include only for": null, 
    "Exclude for": null, 
    "long_name": "Ocean Tracer XY Laplacian Diffusivity", 
    "units": "m2 s-1", 
    "description": "Diffusivity is also sometimes known as the coefficient of diffusion. Diffusion occurs as a result of a gradient in the spatial distribution of mass concentration, temperature or momentum.  The diffusivity may be very different in the vertical and horizontal directions. \"xy diffusivity\" means the lateral along_coordinate component of diffusivity due to motion which is not resolved on the grid scale of the model.  xy diffusivities are used in some ocean models to counteract the numerical instabilities inherent in certain implementations of rotated neutral diffusion. \"laplacian diffusivity\" means diffusivity for use with a Laplacian diffusion operator.", 
    "comment": "Diffusivity is also sometimes known as the coefficient of diffusion. Diffusion occurs as a result of a gradient in the spatial distribution of mass concentration, temperature or momentum.  The diffusivity may be very different in the vertical and horizontal directions. \"xy diffusivity\" means the lateral along_coordinate component of diffusivity due to motion which is not resolved on the grid scale of the model.  xy diffusivities are used in some ocean models to counteract the numerical instabilities inherent in certain implementations of rotated neutral diffusion. \"laplacian diffusivity\" means diffusivity for use with a Laplacian diffusion operator.", 
    "out_name": "diftrxylo", 
    "standard_name": "ocean_tracer_xy_laplacian_diffusivity", 
    "cell_methods": "area: mean time: mean within years time: mean over years", 
    "positive": null, 
    "type": "real", 
    "dimensions": "longitude latitude olevel time2", 
    "modeling_realm": "ocean", 
    "frequency": "monC", 
    "cell_measures": "area: areacello volume: volcello", 
    "valid_min": null, 
    "valid_max": null, 
    "ok_min_mean_abs": null, 
    "ok_max_mean_abs": null, 
    "priority": 3.0, 
    "MIPs (requesting)": "  CMIP(3), FAFMIP(3,3,3), HighResMIP(3,3), LUMIP(3), RFMIP(3,3,3,3)", 
    "experiments": "  abrupt-4xCO2 (FAFMIP:3,RFMIP:3), 1pctCO2 (FAFMIP:3,RFMIP:3), historical (CMIP:3,HighResMIP:3,LUMIP:3,RFMIP:3), piControl (FAFMIP:3,HighResMIP:3,RFMIP:3)"
  }, 
  "diftrxylo2d": {
    "CMOR Name": "diftrxylo2d", 
    "CMOR Name, any freq": "diftrxylo2d", 
    "CCCma check": null, 
    "CCCma hist file": null, 
    "CCCma hist var names": null, 
    "CCCma hist var frequency": null, 
    "CCCma TS var name": null, 
    "CCCma diag file": null, 
    "CCCma units": null, 
    "CCCma optional deck": null, 
    "CCCma comment": null, 
    "CCCma NetCDF comment": null, 
    "CCCma target vertical grid": null, 
    "CCCma target horizontal grid": null, 
    "Include only for": null, 
    "Exclude for": null, 
    "long_name": "Ocean Tracer XY Laplacian Diffusivity", 
    "units": "m2 s-1", 
    "description": "Diffusivity is also sometimes known as the coefficient of diffusion. Diffusion occurs as a result of a gradient in the spatial distribution of mass concentration, temperature or momentum.  The diffusivity may be very different in the vertical and horizontal directions. \"xy diffusivity\" means the lateral along_coordinate component of diffusivity due to motion which is not resolved on the grid scale of the model.  xy diffusivities are used in some ocean models to counteract the numerical instabilities inherent in certain implementations of rotated neutral diffusion. \"laplacian diffusivity\" means diffusivity for use with a Laplacian diffusion operator.", 
    "comment": "Diffusivity is also sometimes known as the coefficient of diffusion. Diffusion occurs as a result of a gradient in the spatial distribution of mass concentration, temperature or momentum.  The diffusivity may be very different in the vertical and horizontal directions. \"xy diffusivity\" means the lateral along_coordinate component of diffusivity due to motion which is not resolved on the grid scale of the model.  xy diffusivities are used in some ocean models to counteract the numerical instabilities inherent in certain implementations of rotated neutral diffusion. \"laplacian diffusivity\" means diffusivity for use with a Laplacian diffusion operator.", 
    "out_name": "diftrxylo", 
    "standard_name": "ocean_tracer_xy_laplacian_diffusivity", 
    "cell_methods": "area: mean time: mean within years time: mean over years", 
    "positive": null, 
    "type": "real", 
    "dimensions": "longitude latitude time2", 
    "modeling_realm": "ocean", 
    "frequency": "monC", 
    "cell_measures": "area: areacello", 
    "valid_min": null, 
    "valid_max": null, 
    "ok_min_mean_abs": null, 
    "ok_max_mean_abs": null, 
    "priority": 3.0, 
    "MIPs (requesting)": "  CMIP(3), FAFMIP(3,3,3), HighResMIP(3,3), LUMIP(3), RFMIP(3,3,3,3)", 
    "experiments": "  abrupt-4xCO2 (FAFMIP:3,RFMIP:3), 1pctCO2 (FAFMIP:3,RFMIP:3), historical (CMIP:3,HighResMIP:3,LUMIP:3,RFMIP:3), piControl (FAFMIP:3,HighResMIP:3,RFMIP:3)"
  }, 
  "difvho": {
    "CMOR Name": "difvho", 
    "CMOR Name, any freq": "difvho", 
    "CCCma check": null, 
    "CCCma hist file": null, 
    "CCCma hist var names": null, 
    "CCCma hist var frequency": null, 
    "CCCma TS var name": null, 
    "CCCma diag file": null, 
    "CCCma units": null, 
    "CCCma optional deck": " ", 
    "CCCma comment": null, 
    "CCCma NetCDF comment": null, 
    "CCCma target vertical grid": null, 
    "CCCma target horizontal grid": null, 
    "Include only for": null, 
    "Exclude for": null, 
    "long_name": "Ocean Vertical Heat Diffusivity", 
    "units": "m2 s-1", 
    "description": "Vertical/dianeutral diffusivity applied to prognostic temperature field.", 
    "comment": "Vertical/dianeutral diffusivity applied to prognostic temperature field.", 
    "out_name": "difvho", 
    "standard_name": "ocean_vertical_heat_diffusivity", 
    "cell_methods": "area: mean time: mean within years time: mean over years", 
    "positive": null, 
    "type": "real", 
    "dimensions": "longitude latitude olevel time2", 
    "modeling_realm": "ocean", 
    "frequency": "monC", 
    "cell_measures": "area: areacello volume: volcello", 
    "valid_min": null, 
    "valid_max": null, 
    "ok_min_mean_abs": null, 
    "ok_max_mean_abs": null, 
    "priority": 1.0, 
    "MIPs (requesting)": "  CMIP(3), FAFMIP(3,3,3), GeoMIP(3,3,3), HighResMIP(3,3), LUMIP(3), RFMIP(3,3,3,3), VIACSAB(1,1,1,2,2,2,2)", 
    "experiments": "  abrupt-4xCO2 (FAFMIP:3,GeoMIP:3,RFMIP:3), amip (VIACSAB:1,VIACSAB:2), 1pctCO2 (VIACSAB:1,FAFMIP:3,RFMIP:3), historical (VIACSAB:1,VIACSAB:2,VIACSAB:2,CMIP:3,GeoMIP:3,HighResMIP:3,LUMIP:3,RFMIP:3), piControl (VIACSAB:2,FAFMIP:3,GeoMIP:3,HighResMIP:3,RFMIP:3)"
  }, 
  "difvmbo": {
    "CMOR Name": "difvmbo", 
    "CMOR Name, any freq": "difvmbo", 
    "CCCma check": null, 
    "CCCma hist file": null, 
    "CCCma hist var names": null, 
    "CCCma hist var frequency": null, 
    "CCCma TS var name": null, 
    "CCCma diag file": null, 
    "CCCma units": null, 
    "CCCma optional deck": null, 
    "CCCma comment": null, 
    "CCCma NetCDF comment": null, 
    "CCCma target vertical grid": null, 
    "CCCma target horizontal grid": null, 
    "Include only for": null, 
    "Exclude for": null, 
    "long_name": "Ocean Vertical Momentum Diffusivity Due to Background", 
    "units": "m2 s-1", 
    "description": "Vertical/dianeutral diffusivity applied to momentum due to the background (i.e. caused by a time invariant imposed field which may be either constant over the globe or spatially varying, depending on the ocean model used).", 
    "comment": "Vertical/dianeutral diffusivity applied to momentum due to the background (i.e. caused by a time invariant imposed field which may be either constant over the globe or spatially varying, depending on the ocean model used).", 
    "out_name": "difvmbo", 
    "standard_name": "ocean_vertical_momentum_diffusivity_due_to_background", 
    "cell_methods": "area: mean time: mean within years time: mean over years", 
    "positive": null, 
    "type": "real", 
    "dimensions": "longitude latitude olevel time2", 
    "modeling_realm": "ocean", 
    "frequency": "monC", 
    "cell_measures": "area: areacello volume: volcello", 
    "valid_min": null, 
    "valid_max": null, 
    "ok_min_mean_abs": null, 
    "ok_max_mean_abs": null, 
    "priority": 1.0, 
    "MIPs (requesting)": "  CMIP(3), FAFMIP(3,3,3), HighResMIP(3,3), LUMIP(3), RFMIP(3,3,3,3), VIACSAB(1,1,1)", 
    "experiments": "  abrupt-4xCO2 (FAFMIP:3,RFMIP:3), amip (VIACSAB:1), 1pctCO2 (VIACSAB:1,FAFMIP:3,RFMIP:3), historical (VIACSAB:1,CMIP:3,HighResMIP:3,LUMIP:3,RFMIP:3), piControl (FAFMIP:3,HighResMIP:3,RFMIP:3)"
  }, 
  "difvmfdo": {
    "CMOR Name": "difvmfdo", 
    "CMOR Name, any freq": "difvmfdo", 
    "CCCma check": null, 
    "CCCma hist file": null, 
    "CCCma hist var names": null, 
    "CCCma hist var frequency": null, 
    "CCCma TS var name": null, 
    "CCCma diag file": null, 
    "CCCma units": null, 
    "CCCma optional deck": null, 
    "CCCma comment": null, 
    "CCCma NetCDF comment": null, 
    "CCCma target vertical grid": null, 
    "CCCma target horizontal grid": null, 
    "Include only for": null, 
    "Exclude for": null, 
    "long_name": "Ocean Vertical Momentum Diffusivity Due to Form Drag", 
    "units": "m2 s-1", 
    "description": "Vertical/dianeutral diffusivity applied to momentum due to form drag (i.e. resulting from a model scheme representing  mesoscale eddy-induced form drag).", 
    "comment": "Vertical/dianeutral diffusivity applied to momentum due to form drag (i.e. resulting from a model scheme representing  mesoscale eddy-induced form drag).", 
    "out_name": "difvmfdo", 
    "standard_name": "ocean_vertical_momentum_diffusivity_due_to_form_drag", 
    "cell_methods": "area: mean time: mean within years time: mean over years", 
    "positive": null, 
    "type": "real", 
    "dimensions": "longitude latitude olevel time2", 
    "modeling_realm": "ocean", 
    "frequency": "monC", 
    "cell_measures": "area: areacello volume: volcello", 
    "valid_min": null, 
    "valid_max": null, 
    "ok_min_mean_abs": null, 
    "ok_max_mean_abs": null, 
    "priority": 1.0, 
    "MIPs (requesting)": "  CMIP(3), FAFMIP(3,3,3), HighResMIP(3,3), LUMIP(3), RFMIP(3,3,3,3), VIACSAB(1,1)", 
    "experiments": "  abrupt-4xCO2 (FAFMIP:3,RFMIP:3), amip (VIACSAB:1), 1pctCO2 (FAFMIP:3,RFMIP:3), historical (VIACSAB:1,CMIP:3,HighResMIP:3,LUMIP:3,RFMIP:3), piControl (FAFMIP:3,HighResMIP:3,RFMIP:3)"
  }, 
  "difvmo": {
    "CMOR Name": "difvmo", 
    "CMOR Name, any freq": "difvmo", 
    "CCCma check": null, 
    "CCCma hist file": null, 
    "CCCma hist var names": null, 
    "CCCma hist var frequency": null, 
    "CCCma TS var name": null, 
    "CCCma diag file": null, 
    "CCCma units": null, 
    "CCCma optional deck": null, 
    "CCCma comment": null, 
    "CCCma NetCDF comment": null, 
    "CCCma target vertical grid": null, 
    "CCCma target horizontal grid": null, 
    "Include only for": null, 
    "Exclude for": null, 
    "long_name": "Ocean Vertical Momentum Diffusivity", 
    "units": "m2 s-1", 
    "description": "Vertical/dianeutral diffusivity applied to momentum.", 
    "comment": "Vertical/dianeutral diffusivity applied to momentum.", 
    "out_name": "difvmo", 
    "standard_name": "ocean_vertical_momentum_diffusivity", 
    "cell_methods": "area: mean time: mean within years time: mean over years", 
    "positive": null, 
    "type": "real", 
    "dimensions": "longitude latitude olevel time2", 
    "modeling_realm": "ocean", 
    "frequency": "monC", 
    "cell_measures": "area: areacello volume: volcello", 
    "valid_min": null, 
    "valid_max": null, 
    "ok_min_mean_abs": null, 
    "ok_max_mean_abs": null, 
    "priority": 1.0, 
    "MIPs (requesting)": "  CMIP(3), FAFMIP(3,3,3), GeoMIP(3,3,3), HighResMIP(3,3), LUMIP(3), RFMIP(3,3,3,3), VIACSAB(1,1,1)", 
    "experiments": "  abrupt-4xCO2 (FAFMIP:3,GeoMIP:3,RFMIP:3), amip (VIACSAB:1), 1pctCO2 (VIACSAB:1,FAFMIP:3,RFMIP:3), historical (VIACSAB:1,CMIP:3,GeoMIP:3,HighResMIP:3,LUMIP:3,RFMIP:3), piControl (FAFMIP:3,GeoMIP:3,HighResMIP:3,RFMIP:3)"
  }, 
  "difvmto": {
    "CMOR Name": "difvmto", 
    "CMOR Name, any freq": "difvmto", 
    "CCCma check": null, 
    "CCCma hist file": null, 
    "CCCma hist var names": null, 
    "CCCma hist var frequency": null, 
    "CCCma TS var name": null, 
    "CCCma diag file": null, 
    "CCCma units": null, 
    "CCCma optional deck": null, 
    "CCCma comment": null, 
    "CCCma NetCDF comment": null, 
    "CCCma target vertical grid": null, 
    "CCCma target horizontal grid": null, 
    "Include only for": null, 
    "Exclude for": null, 
    "long_name": "Ocean Vertical Momentum Diffusivity Due to Tides", 
    "units": "m2 s-1", 
    "description": "Diffusivity is also sometimes known as the coefficient of diffusion. Diffusion occurs as a result of a gradient in the spatial distribution of mass concentration, temperature or momentum.  The diffusivity may be very different in the vertical and horizontal directions. The construction vertical_X_diffusivity means the vertical component of the diffusivity of X due to motion which is not resolved on the grid scale of the model. \"Due to tides\" means due to all astronomical gravity changes which manifest as tides. No distinction is made between different tidal components. The specification of a physical process by the phrase due_to_process means that the quantity named is a  single term in a sum of terms which together compose the general quantity  named by omitting the phrase.", 
    "comment": "Diffusivity is also sometimes known as the coefficient of diffusion. Diffusion occurs as a result of a gradient in the spatial distribution of mass concentration, temperature or momentum.  The diffusivity may be very different in the vertical and horizontal directions. The construction vertical_X_diffusivity means the vertical component of the diffusivity of X due to motion which is not resolved on the grid scale of the model. \"Due to tides\" means due to all astronomical gravity changes which manifest as tides. No distinction is made between different tidal components. The specification of a physical process by the phrase due_to_process means that the quantity named is a  single term in a sum of terms which together compose the general quantity  named by omitting the phrase.", 
    "out_name": "difvmto", 
    "standard_name": "ocean_vertical_momentum_diffusivity_due_to_tides", 
    "cell_methods": "area: mean time: mean within years time: mean over years", 
    "positive": null, 
    "type": "real", 
    "dimensions": "longitude latitude olevel time2", 
    "modeling_realm": "ocean", 
    "frequency": "monC", 
    "cell_measures": "area: areacello volume: volcello", 
    "valid_min": null, 
    "valid_max": null, 
    "ok_min_mean_abs": null, 
    "ok_max_mean_abs": null, 
    "priority": 1.0, 
    "MIPs (requesting)": "  CMIP(3), FAFMIP(3,3,3), HighResMIP(3,3), LUMIP(3), RFMIP(3,3,3,3), VIACSAB(1,1,1)", 
    "experiments": "  abrupt-4xCO2 (FAFMIP:3,RFMIP:3), amip (VIACSAB:1), 1pctCO2 (VIACSAB:1,FAFMIP:3,RFMIP:3), historical (VIACSAB:1,CMIP:3,HighResMIP:3,LUMIP:3,RFMIP:3), piControl (FAFMIP:3,HighResMIP:3,RFMIP:3)"
  }, 
  "difvso": {
    "CMOR Name": "difvso", 
    "CMOR Name, any freq": "difvso", 
    "CCCma check": null, 
    "CCCma hist file": null, 
    "CCCma hist var names": null, 
    "CCCma hist var frequency": null, 
    "CCCma TS var name": null, 
    "CCCma diag file": null, 
    "CCCma units": null, 
    "CCCma optional deck": " ", 
    "CCCma comment": null, 
    "CCCma NetCDF comment": null, 
    "CCCma target vertical grid": null, 
    "CCCma target horizontal grid": null, 
    "Include only for": null, 
    "Exclude for": null, 
    "long_name": "Ocean Vertical Salt Diffusivity", 
    "units": "m2 s-1", 
    "description": "Vertical/dianeutral diffusivity applied to prognostic salinity field.", 
    "comment": "Vertical/dianeutral diffusivity applied to prognostic salinity field.", 
    "out_name": "difvso", 
    "standard_name": "ocean_vertical_salt_diffusivity", 
    "cell_methods": "area: mean time: mean within years time: mean over years", 
    "positive": null, 
    "type": "real", 
    "dimensions": "longitude latitude olevel time2", 
    "modeling_realm": "ocean", 
    "frequency": "monC", 
    "cell_measures": "area: areacello volume: volcello", 
    "valid_min": null, 
    "valid_max": null, 
    "ok_min_mean_abs": null, 
    "ok_max_mean_abs": null, 
    "priority": 1.0, 
    "MIPs (requesting)": "  CMIP(3), FAFMIP(3,3,3), GeoMIP(3,3,3), HighResMIP(3,3), LUMIP(3), RFMIP(3,3,3,3), VIACSAB(1,1,1,2,2,2,2)", 
    "experiments": "  abrupt-4xCO2 (FAFMIP:3,GeoMIP:3,RFMIP:3), amip (VIACSAB:1,VIACSAB:2), 1pctCO2 (VIACSAB:1,FAFMIP:3,RFMIP:3), historical (VIACSAB:1,VIACSAB:2,VIACSAB:2,CMIP:3,GeoMIP:3,HighResMIP:3,LUMIP:3,RFMIP:3), piControl (VIACSAB:2,FAFMIP:3,GeoMIP:3,HighResMIP:3,RFMIP:3)"
  }, 
  "difvtrbo": {
    "CMOR Name": "difvtrbo", 
    "CMOR Name, any freq": "difvtrbo", 
    "CCCma check": null, 
    "CCCma hist file": null, 
    "CCCma hist var names": null, 
    "CCCma hist var frequency": null, 
    "CCCma TS var name": null, 
    "CCCma diag file": null, 
    "CCCma units": null, 
    "CCCma optional deck": null, 
    "CCCma comment": null, 
    "CCCma NetCDF comment": null, 
    "CCCma target vertical grid": null, 
    "CCCma target horizontal grid": null, 
    "Include only for": null, 
    "Exclude for": null, 
    "long_name": "Ocean Vertical Tracer Diffusivity Due to Background", 
    "units": "m2 s-1", 
    "description": "Vertical/dianeutral diffusivity applied to tracers due to the background (i.e. caused by a time invariant imposed field which may be either constant over the globe or spatially varying, depending on the ocean model used).", 
    "comment": "Vertical/dianeutral diffusivity applied to tracers due to the background (i.e. caused by a time invariant imposed field which may be either constant over the globe or spatially varying, depending on the ocean model used).", 
    "out_name": "difvtrbo", 
    "standard_name": "ocean_vertical_tracer_diffusivity_due_to_background", 
    "cell_methods": "area: mean time: mean within years time: mean over years", 
    "positive": null, 
    "type": "real", 
    "dimensions": "longitude latitude olevel time2", 
    "modeling_realm": "ocean", 
    "frequency": "monC", 
    "cell_measures": "area: areacello volume: volcello", 
    "valid_min": null, 
    "valid_max": null, 
    "ok_min_mean_abs": null, 
    "ok_max_mean_abs": null, 
    "priority": 1.0, 
    "MIPs (requesting)": "  CMIP(3), FAFMIP(3,3,3), HighResMIP(3,3), LUMIP(3), RFMIP(3,3,3,3), VIACSAB(1,1,1,2,2,2,2,2)", 
    "experiments": "  abrupt-4xCO2 (FAFMIP:3,RFMIP:3), amip (VIACSAB:1,VIACSAB:2), 1pctCO2 (VIACSAB:1,VIACSAB:2,FAFMIP:3,RFMIP:3), historical (VIACSAB:1,VIACSAB:2,VIACSAB:2,CMIP:3,HighResMIP:3,LUMIP:3,RFMIP:3), piControl (VIACSAB:2,FAFMIP:3,HighResMIP:3,RFMIP:3)"
  }, 
  "difvtrto": {
    "CMOR Name": "difvtrto", 
    "CMOR Name, any freq": "difvtrto", 
    "CCCma check": null, 
    "CCCma hist file": null, 
    "CCCma hist var names": null, 
    "CCCma hist var frequency": null, 
    "CCCma TS var name": null, 
    "CCCma diag file": null, 
    "CCCma units": null, 
    "CCCma optional deck": null, 
    "CCCma comment": null, 
    "CCCma NetCDF comment": null, 
    "CCCma target vertical grid": null, 
    "CCCma target horizontal grid": null, 
    "Include only for": null, 
    "Exclude for": null, 
    "long_name": "Ocean Vertical Tracer Diffusivity Due to Tides", 
    "units": "m2 s-1", 
    "description": "Vertical/dianeutral diffusivity applied to tracers due to tides (i.e. caused by astronomical gravity changes which manifest as tides).", 
    "comment": "Vertical/dianeutral diffusivity applied to tracers due to tides (i.e. caused by astronomical gravity changes which manifest as tides).", 
    "out_name": "difvtrto", 
    "standard_name": "ocean_vertical_tracer_diffusivity_due_to_tides", 
    "cell_methods": "area: mean time: mean within years time: mean over years", 
    "positive": null, 
    "type": "real", 
    "dimensions": "longitude latitude olevel time2", 
    "modeling_realm": "ocean", 
    "frequency": "monC", 
    "cell_measures": "area: areacello volume: volcello", 
    "valid_min": null, 
    "valid_max": null, 
    "ok_min_mean_abs": null, 
    "ok_max_mean_abs": null, 
    "priority": 1.0, 
    "MIPs (requesting)": "  CMIP(3), FAFMIP(3,3,3), HighResMIP(3,3), LUMIP(3), RFMIP(3,3,3,3), VIACSAB(1,1,1,2,2,2,2,2)", 
    "experiments": "  abrupt-4xCO2 (FAFMIP:3,RFMIP:3), amip (VIACSAB:1,VIACSAB:2), 1pctCO2 (VIACSAB:1,VIACSAB:2,FAFMIP:3,RFMIP:3), historical (VIACSAB:1,VIACSAB:2,VIACSAB:2,CMIP:3,HighResMIP:3,LUMIP:3,RFMIP:3), piControl (VIACSAB:2,FAFMIP:3,HighResMIP:3,RFMIP:3)"
  }, 
  "dispkevfo": {
    "CMOR Name": "dispkevfo", 
    "CMOR Name, any freq": "dispkevfo", 
    "CCCma check": null, 
    "CCCma hist file": null, 
    "CCCma hist var names": null, 
    "CCCma hist var frequency": null, 
    "CCCma TS var name": null, 
    "CCCma diag file": null, 
    "CCCma units": null, 
    "CCCma optional deck": null, 
    "CCCma comment": null, 
    "CCCma NetCDF comment": null, 
    "CCCma target vertical grid": null, 
    "CCCma target horizontal grid": null, 
    "Include only for": null, 
    "Exclude for": null, 
    "long_name": "Ocean Kinetic Energy Dissipation per Unit Area Due to Vertical Friction", 
    "units": "W m-2", 
    "description": "Friction, leading to the dissipation of kinetic energy, arises in ocean models as a result of the viscosity of sea water.  Generally, the  lateral (xy) viscosity is given a large value to maintain the numerical stability of the model.  In contrast, the vertical viscosity is usually much smaller. The specification of a physical process by the phrase due_to_process means that the quantity named is a  single term in a sum of terms which together compose the general quantity  named by omitting the phrase.", 
    "comment": "Friction, leading to the dissipation of kinetic energy, arises in ocean models as a result of the viscosity of sea water.  Generally, the  lateral (xy) viscosity is given a large value to maintain the numerical stability of the model.  In contrast, the vertical viscosity is usually much smaller. The specification of a physical process by the phrase due_to_process means that the quantity named is a  single term in a sum of terms which together compose the general quantity  named by omitting the phrase.", 
    "out_name": "dispkevfo", 
    "standard_name": "ocean_kinetic_energy_dissipation_per_unit_area_due_to_vertical_friction", 
    "cell_methods": "area: mean time: mean within years time: mean over years", 
    "positive": null, 
    "type": "real", 
    "dimensions": "longitude latitude olevel time2", 
    "modeling_realm": "ocean", 
    "frequency": "monC", 
    "cell_measures": "area: areacello volume: volcello", 
    "valid_min": null, 
    "valid_max": null, 
    "ok_min_mean_abs": null, 
    "ok_max_mean_abs": null, 
    "priority": 1.0, 
    "MIPs (requesting)": "  CMIP(3), FAFMIP(3,3,3), HighResMIP(3,3), LUMIP(3), RFMIP(3,3,3,3), VIACSAB(1,1)", 
    "experiments": "  abrupt-4xCO2 (FAFMIP:3,RFMIP:3), amip (VIACSAB:1), 1pctCO2 (FAFMIP:3,RFMIP:3), historical (VIACSAB:1,CMIP:3,HighResMIP:3,LUMIP:3,RFMIP:3), piControl (FAFMIP:3,HighResMIP:3,RFMIP:3)"
  }, 
  "dispkexyfo": {
    "CMOR Name": "dispkexyfo", 
    "CMOR Name, any freq": "dispkexyfo", 
    "CCCma check": null, 
    "CCCma hist file": " ", 
    "CCCma hist var names": null, 
    "CCCma hist var frequency": null, 
    "CCCma TS var name": " ", 
    "CCCma diag file": null, 
    "CCCma units": " ", 
    "CCCma optional deck": " ", 
    "CCCma comment": " ", 
    "CCCma NetCDF comment": null, 
    "CCCma target vertical grid": null, 
    "CCCma target horizontal grid": null, 
    "Include only for": null, 
    "Exclude for": null, 
    "long_name": "Ocean Kinetic Energy Dissipation per Unit Area Due to XY Friction", 
    "units": "W m-2", 
    "description": "Depth integrated impacts on kinetic energy arising from lateral frictional dissipation associated with Laplacian and/or biharmonic viscosity. For CMIP5, this diagnostic was 3d, whereas the CMIP6 depth integrated diagnostic is sufficient for many purposes and reduces archive requirements.", 
    "comment": "Depth integrated impacts on kinetic energy arising from lateral frictional dissipation associated with Laplacian and/or biharmonic viscosity. For CMIP5, this diagnostic was 3d, whereas the CMIP6 depth integrated diagnostic is sufficient for many purposes and reduces archive requirements.", 
    "out_name": "dispkexyfo", 
    "standard_name": "ocean_kinetic_energy_dissipation_per_unit_area_due_to_xy_friction", 
    "cell_methods": "area: mean time: mean within years time: mean over years", 
    "positive": null, 
    "type": "real", 
    "dimensions": "longitude latitude olevel time2", 
    "modeling_realm": "ocean", 
    "frequency": "monC", 
    "cell_measures": "area: areacello volume: volcello", 
    "valid_min": null, 
    "valid_max": null, 
    "ok_min_mean_abs": null, 
    "ok_max_mean_abs": null, 
    "priority": 3.0, 
    "MIPs (requesting)": "  CMIP(3), FAFMIP(3,3,3), HighResMIP(3,3), LUMIP(3), RFMIP(3,3,3,3)", 
    "experiments": "  abrupt-4xCO2 (FAFMIP:3,RFMIP:3), 1pctCO2 (FAFMIP:3,RFMIP:3), historical (CMIP:3,HighResMIP:3,LUMIP:3,RFMIP:3), piControl (FAFMIP:3,HighResMIP:3,RFMIP:3)"
  }, 
  "dispkexyfo2d": {
    "CMOR Name": "dispkexyfo2d", 
    "CMOR Name, any freq": "dispkexyfo2d", 
    "CCCma check": null, 
    "CCCma hist file": null, 
    "CCCma hist var names": null, 
    "CCCma hist var frequency": null, 
    "CCCma TS var name": null, 
    "CCCma diag file": null, 
    "CCCma units": null, 
    "CCCma optional deck": null, 
    "CCCma comment": null, 
    "CCCma NetCDF comment": null, 
    "CCCma target vertical grid": null, 
    "CCCma target horizontal grid": null, 
    "Include only for": null, 
    "Exclude for": null, 
    "long_name": "Ocean Kinetic Energy Dissipation per Unit Area Due to XY Friction", 
    "units": "W m-2", 
    "description": "Depth integrated impacts on kinetic energy arising from lateral frictional dissipation associated with Laplacian and/or biharmonic viscosity. For CMIP5, this diagnostic was 3d, whereas the CMIP6 depth integrated diagnostic is sufficient for many purposes and reduces archive requirements.", 
    "comment": "Depth integrated impacts on kinetic energy arising from lateral frictional dissipation associated with Laplacian and/or biharmonic viscosity. For CMIP5, this diagnostic was 3d, whereas the CMIP6 depth integrated diagnostic is sufficient for many purposes and reduces archive requirements.", 
    "out_name": "dispkexyfo", 
    "standard_name": "ocean_kinetic_energy_dissipation_per_unit_area_due_to_xy_friction", 
    "cell_methods": "area: mean time: mean within years time: mean over years", 
    "positive": null, 
    "type": "real", 
    "dimensions": "longitude latitude time2", 
    "modeling_realm": "ocean", 
    "frequency": "monC", 
    "cell_measures": "area: areacello", 
    "valid_min": null, 
    "valid_max": null, 
    "ok_min_mean_abs": null, 
    "ok_max_mean_abs": null, 
    "priority": 3.0, 
    "MIPs (requesting)": "  CMIP(3), FAFMIP(3,3,3), HighResMIP(3,3), LUMIP(3), RFMIP(3,3,3,3)", 
    "experiments": "  abrupt-4xCO2 (FAFMIP:3,RFMIP:3), 1pctCO2 (FAFMIP:3,RFMIP:3), historical (CMIP:3,HighResMIP:3,LUMIP:3,RFMIP:3), piControl (FAFMIP:3,HighResMIP:3,RFMIP:3)"
  }, 
  "tnkebto": {
    "CMOR Name": "tnkebto", 
    "CMOR Name, any freq": "tnkebto", 
    "CCCma check": null, 
    "CCCma hist file": " ", 
    "CCCma hist var names": null, 
    "CCCma hist var frequency": null, 
    "CCCma TS var name": " ", 
    "CCCma diag file": null, 
    "CCCma units": " ", 
    "CCCma optional deck": " ", 
    "CCCma comment": " ", 
    "CCCma NetCDF comment": null, 
    "CCCma target vertical grid": null, 
    "CCCma target horizontal grid": null, 
    "Include only for": null, 
    "Exclude for": null, 
    "long_name": "Tendency of Ocean Eddy Kinetic Energy Content Due to Parameterized Eddy Advection", 
    "units": "W m-2", 
    "description": "Depth integrated impacts on kinetic energy arising from parameterized eddy-induced advection. For CMIP5, this diagnostic was 3d, whereas the CMIP6 depth integrated diagnostic is sufficient for many purposes and reduces archive requirements.", 
    "comment": "Depth integrated impacts on kinetic energy arising from parameterized eddy-induced advection. For CMIP5, this diagnostic was 3d, whereas the CMIP6 depth integrated diagnostic is sufficient for many purposes and reduces archive requirements.", 
    "out_name": "tnkebto", 
    "standard_name": "tendency_of_ocean_eddy_kinetic_energy_content_due_to_parameterized_eddy_advection", 
    "cell_methods": "area: mean time: mean within years time: mean over years", 
    "positive": null, 
    "type": "real", 
    "dimensions": "longitude latitude olevel time2", 
    "modeling_realm": "ocean", 
    "frequency": "monC", 
    "cell_measures": "area: areacello volume: volcello", 
    "valid_min": null, 
    "valid_max": null, 
    "ok_min_mean_abs": null, 
    "ok_max_mean_abs": null, 
    "priority": 3.0, 
    "MIPs (requesting)": "  CMIP(3), FAFMIP(3,3,3), HighResMIP(3,3), LUMIP(3), RFMIP(3,3,3,3)", 
    "experiments": "  abrupt-4xCO2 (FAFMIP:3,RFMIP:3), 1pctCO2 (FAFMIP:3,RFMIP:3), historical (CMIP:3,HighResMIP:3,LUMIP:3,RFMIP:3), piControl (FAFMIP:3,HighResMIP:3,RFMIP:3)"
  }, 
  "tnkebto2d": {
    "CMOR Name": "tnkebto2d", 
    "CMOR Name, any freq": "tnkebto2d", 
    "CCCma check": null, 
    "CCCma hist file": null, 
    "CCCma hist var names": null, 
    "CCCma hist var frequency": null, 
    "CCCma TS var name": null, 
    "CCCma diag file": null, 
    "CCCma units": null, 
    "CCCma optional deck": null, 
    "CCCma comment": null, 
    "CCCma NetCDF comment": null, 
    "CCCma target vertical grid": null, 
    "CCCma target horizontal grid": null, 
    "Include only for": null, 
    "Exclude for": null, 
    "long_name": "Tendency of Ocean Eddy Kinetic Energy Content Due to Parameterized Eddy Advection", 
    "units": "W m-2", 
    "description": "Depth integrated impacts on kinetic energy arising from parameterized eddy-induced advection. For CMIP5, this diagnostic was 3d, whereas the CMIP6 depth integrated diagnostic is sufficient for many purposes and reduces archive requirements.", 
    "comment": "Depth integrated impacts on kinetic energy arising from parameterized eddy-induced advection. For CMIP5, this diagnostic was 3d, whereas the CMIP6 depth integrated diagnostic is sufficient for many purposes and reduces archive requirements.", 
    "out_name": "tnkebto", 
    "standard_name": "tendency_of_ocean_eddy_kinetic_energy_content_due_to_parameterized_eddy_advection", 
    "cell_methods": "area: mean time: mean within years time: mean over years", 
    "positive": null, 
    "type": "real", 
    "dimensions": "longitude latitude time2", 
    "modeling_realm": "ocean", 
    "frequency": "monC", 
    "cell_measures": "area: areacello", 
    "valid_min": null, 
    "valid_max": null, 
    "ok_min_mean_abs": null, 
    "ok_max_mean_abs": null, 
    "priority": 3.0, 
    "MIPs (requesting)": "  CMIP(3), FAFMIP(3,3,3), HighResMIP(3,3), LUMIP(3), RFMIP(3,3,3,3)", 
    "experiments": "  abrupt-4xCO2 (FAFMIP:3,RFMIP:3), 1pctCO2 (FAFMIP:3,RFMIP:3), historical (CMIP:3,HighResMIP:3,LUMIP:3,RFMIP:3), piControl (FAFMIP:3,HighResMIP:3,RFMIP:3)"
  }, 
  "tnpeo": {
    "CMOR Name": "tnpeo", 
    "CMOR Name, any freq": "tnpeo", 
    "CCCma check": null, 
    "CCCma hist file": " ", 
    "CCCma hist var names": null, 
    "CCCma hist var frequency": null, 
    "CCCma TS var name": " ", 
    "CCCma diag file": null, 
    "CCCma units": " ", 
    "CCCma optional deck": " ", 
    "CCCma comment": " ", 
    "CCCma NetCDF comment": null, 
    "CCCma target vertical grid": null, 
    "CCCma target horizontal grid": null, 
    "Include only for": null, 
    "Exclude for": null, 
    "long_name": "Tendency of Ocean Potential Energy Content", 
    "units": "W m-2", 
    "description": "Rate that work is done against vertical stratification, as measured by the vertical heat and salt diffusivity. Report here as depth integrated two-dimensional field.", 
    "comment": "Rate that work is done against vertical stratification, as measured by the vertical heat and salt diffusivity. Report here as depth integrated two-dimensional field.", 
    "out_name": "tnpeo", 
    "standard_name": "tendency_of_ocean_potential_energy_content", 
    "cell_methods": "area: mean time: mean within years time: mean over years", 
    "positive": null, 
    "type": "real", 
    "dimensions": "longitude latitude olevel time2", 
    "modeling_realm": "ocean", 
    "frequency": "monC", 
    "cell_measures": "area: areacello volume: volcello", 
    "valid_min": null, 
    "valid_max": null, 
    "ok_min_mean_abs": null, 
    "ok_max_mean_abs": null, 
    "priority": 1.0, 
    "MIPs (requesting)": "  CMIP(3), FAFMIP(3,3,3), HighResMIP(3,3), LUMIP(3), RFMIP(3,3,3,3), VIACSAB(1,1,1)", 
    "experiments": "  abrupt-4xCO2 (FAFMIP:3,RFMIP:3), amip (VIACSAB:1), 1pctCO2 (VIACSAB:1,FAFMIP:3,RFMIP:3), historical (VIACSAB:1,CMIP:3,HighResMIP:3,LUMIP:3,RFMIP:3), piControl (FAFMIP:3,HighResMIP:3,RFMIP:3)"
  }, 
  "tnpeot": {
    "CMOR Name": "tnpeot", 
    "CMOR Name, any freq": "tnpeot", 
    "CCCma check": null, 
    "CCCma hist file": null, 
    "CCCma hist var names": null, 
    "CCCma hist var frequency": null, 
    "CCCma TS var name": null, 
    "CCCma diag file": null, 
    "CCCma units": null, 
    "CCCma optional deck": null, 
    "CCCma comment": null, 
    "CCCma NetCDF comment": null, 
    "CCCma target vertical grid": null, 
    "CCCma target horizontal grid": null, 
    "Include only for": null, 
    "Exclude for": null, 
    "long_name": "Tendency of Ocean Potential Energy Content Due to Tides", 
    "units": "W m-2", 
    "description": "\"Content\" indicates a quantity per unit area.  Potential energy is the sum of the gravitational potential energy relative to the geoid and the centripetal potential energy. (The geopotential is the specific potential energy.)  \"Due to tides\" means due to all astronomical gravity changes which manifest as tides.  No distinction is made between different tidal components. The specification of a physical process by the phrase due_to_process means that the quantity named is a  single term in a sum of terms which together compose the general quantity  named by omitting the phrase.  \"tendency_of_X\" means derivative of X with respect to time.", 
    "comment": "\"Content\" indicates a quantity per unit area.  Potential energy is the sum of the gravitational potential energy relative to the geoid and the centripetal potential energy. (The geopotential is the specific potential energy.)  \"Due to tides\" means due to all astronomical gravity changes which manifest as tides.  No distinction is made between different tidal components. The specification of a physical process by the phrase due_to_process means that the quantity named is a  single term in a sum of terms which together compose the general quantity  named by omitting the phrase.  \"tendency_of_X\" means derivative of X with respect to time.", 
    "out_name": "tnpeot", 
    "standard_name": "tendency_of_ocean_potential_energy_content_due_to_tides", 
    "cell_methods": "area: mean time: mean within years time: mean over years", 
    "positive": null, 
    "type": "real", 
    "dimensions": "longitude latitude olevel time2", 
    "modeling_realm": "ocean", 
    "frequency": "monC", 
    "cell_measures": "area: areacello volume: volcello", 
    "valid_min": null, 
    "valid_max": null, 
    "ok_min_mean_abs": null, 
    "ok_max_mean_abs": null, 
    "priority": 1.0, 
    "MIPs (requesting)": "  CMIP(3), FAFMIP(3,3,3), HighResMIP(3,3), LUMIP(3), RFMIP(3,3,3,3), VIACSAB(1,1)", 
    "experiments": "  abrupt-4xCO2 (FAFMIP:3,RFMIP:3), amip (VIACSAB:1), 1pctCO2 (FAFMIP:3,RFMIP:3), historical (VIACSAB:1,CMIP:3,HighResMIP:3,LUMIP:3,RFMIP:3), piControl (FAFMIP:3,HighResMIP:3,RFMIP:3)"
  }, 
  "tnpeotb": {
    "CMOR Name": "tnpeotb", 
    "CMOR Name, any freq": "tnpeotb", 
    "CCCma check": null, 
    "CCCma hist file": null, 
    "CCCma hist var names": null, 
    "CCCma hist var frequency": null, 
    "CCCma TS var name": null, 
    "CCCma diag file": null, 
    "CCCma units": null, 
    "CCCma optional deck": null, 
    "CCCma comment": null, 
    "CCCma NetCDF comment": null, 
    "CCCma target vertical grid": null, 
    "CCCma target horizontal grid": null, 
    "Include only for": null, 
    "Exclude for": null, 
    "long_name": "Tendency of Ocean Potential Energy Content Due to Background", 
    "units": "W m-2", 
    "description": "\"Content\" indicates a quantity per unit area.  Potential energy is the sum of the gravitational potential energy relative to the geoid and the centripetal potential energy. (The geopotential is the specific potential energy.)  \"Due to background\" means caused by a time invariant imposed field which may be either constant over the globe or spatially varying, depending on the ocean model used. The specification of a physical process by the phrase due_to_process means that the quantity named is a  single term in a sum of terms which together compose the general quantity  named by omitting the phrase.  \"tendency_of_X\" means derivative of X with respect to time.", 
    "comment": "\"Content\" indicates a quantity per unit area.  Potential energy is the sum of the gravitational potential energy relative to the geoid and the centripetal potential energy. (The geopotential is the specific potential energy.)  \"Due to background\" means caused by a time invariant imposed field which may be either constant over the globe or spatially varying, depending on the ocean model used. The specification of a physical process by the phrase due_to_process means that the quantity named is a  single term in a sum of terms which together compose the general quantity  named by omitting the phrase.  \"tendency_of_X\" means derivative of X with respect to time.", 
    "out_name": "tnpeotb", 
    "standard_name": "tendency_of_ocean_potential_energy_content_due_to_background", 
    "cell_methods": "area: mean time: mean within years time: mean over years", 
    "positive": null, 
    "type": "real", 
    "dimensions": "longitude latitude olevel time2", 
    "modeling_realm": "ocean", 
    "frequency": "monC", 
    "cell_measures": "area: areacello volume: volcello", 
    "valid_min": null, 
    "valid_max": null, 
    "ok_min_mean_abs": null, 
    "ok_max_mean_abs": null, 
    "priority": 1.0, 
    "MIPs (requesting)": "  CMIP(3), FAFMIP(3,3,3), HighResMIP(3,3), LUMIP(3), RFMIP(3,3,3,3), VIACSAB(1,1)", 
    "experiments": "  abrupt-4xCO2 (FAFMIP:3,RFMIP:3), amip (VIACSAB:1), 1pctCO2 (FAFMIP:3,RFMIP:3), historical (VIACSAB:1,CMIP:3,HighResMIP:3,LUMIP:3,RFMIP:3), piControl (FAFMIP:3,HighResMIP:3,RFMIP:3)"
  }, 
  "zfullo": {
    "CMOR Name": "zfullo", 
    "CMOR Name, any freq": "zfullo", 
    "CCCma check": "Provide??? DY", 
    "CCCma hist file": null, 
    "CCCma hist var names": null, 
    "CCCma hist var frequency": null, 
    "CCCma TS var name": null, 
    "CCCma diag file": null, 
    "CCCma units": null, 
    "CCCma optional deck": null, 
    "CCCma comment": null, 
    "CCCma NetCDF comment": null, 
    "CCCma target vertical grid": null, 
    "CCCma target horizontal grid": null, 
    "Include only for": null, 
    "Exclude for": null, 
    "long_name": "Depth Below Geoid of Ocean Layer", 
    "units": "m", 
    "description": "Depth below geoid", 
    "comment": "Depth below geoid", 
    "out_name": "zfullo", 
    "standard_name": "depth_below_geoid", 
    "cell_methods": "area: mean time: mean within years time: mean over years", 
    "positive": null, 
    "type": "real", 
    "dimensions": "longitude latitude olevel time2", 
    "modeling_realm": "ocean", 
    "frequency": "monC", 
    "cell_measures": "area: areacello volume: volcello", 
    "valid_min": null, 
    "valid_max": null, 
    "ok_min_mean_abs": null, 
    "ok_max_mean_abs": null, 
    "priority": 1.0, 
    "MIPs (requesting)": "  CMIP(1), FAFMIP(1,1,1), HighResMIP(1,1), LUMIP(1), RFMIP(1,1,1,1), VIACSAB(1,1,1)", 
    "experiments": "  abrupt-4xCO2 (FAFMIP:1,RFMIP:1), amip (VIACSAB:1), 1pctCO2 (FAFMIP:1,RFMIP:1,VIACSAB:1), historical (CMIP:1,HighResMIP:1,LUMIP:1,RFMIP:1,VIACSAB:1), piControl (FAFMIP:1,HighResMIP:1,RFMIP:1)"
  }, 
  "zhalfo": {
    "CMOR Name": "zhalfo", 
    "CMOR Name, any freq": "zhalfo", 
    "CCCma check": "Provide??? DY", 
    "CCCma hist file": null, 
    "CCCma hist var names": null, 
    "CCCma hist var frequency": null, 
    "CCCma TS var name": null, 
    "CCCma diag file": null, 
    "CCCma units": null, 
    "CCCma optional deck": null, 
    "CCCma comment": null, 
    "CCCma NetCDF comment": null, 
    "CCCma target vertical grid": null, 
    "CCCma target horizontal grid": null, 
    "Include only for": null, 
    "Exclude for": null, 
    "long_name": "Depth Below Geoid of Interfaces Between Ocean Layers", 
    "units": "m", 
    "description": "Depth below geoid", 
    "comment": "Depth below geoid", 
    "out_name": "zhalfo", 
    "standard_name": "depth_below_geoid", 
    "cell_methods": "area: mean time: mean within years time: mean over years", 
    "positive": null, 
    "type": "real", 
    "dimensions": "longitude latitude olevel time2", 
    "modeling_realm": "ocean", 
    "frequency": "monC", 
    "cell_measures": "area: areacello", 
    "valid_min": null, 
    "valid_max": null, 
    "ok_min_mean_abs": null, 
    "ok_max_mean_abs": null, 
    "priority": 1.0, 
    "MIPs (requesting)": "  CMIP(1), FAFMIP(1,1,1), HighResMIP(1,1), LUMIP(1), RFMIP(1,1,1,1)", 
    "experiments": "  abrupt-4xCO2 (FAFMIP:1,RFMIP:1), 1pctCO2 (FAFMIP:1,RFMIP:1), historical (CMIP:1,HighResMIP:1,LUMIP:1,RFMIP:1), piControl (FAFMIP:1,HighResMIP:1,RFMIP:1)"
  }
}