{
  "_metadata_": {
    "Source file": "output_variables_dreq01.00.31_CANOE__BACKUP_26Mar2021_18h26m06sUTC.xlsx output_variables_dreq01.00.31__BACKUP_26Mar2021_18h26m02sUTC.xlsx", 
    "MIP table": "SIday"
  }, 
  "siconc": {
    "CMOR Name": "siconc", 
    "CMOR Name, any freq": "siconc", 
    "CCCma check": "DY; MS.", 
    "CCCma hist file": "1d_icemod", 
    "CCCma hist var names": null, 
    "CCCma hist var frequency": null, 
    "CCCma TS var name": " siconc ", 
    "CCCma diag file": "1d_icemod", 
    "CCCma units": "1", 
    "CCCma optional deck": "mltby100_ocn", 
    "CCCma comment": " Added in nemo code by DY.", 
    "CCCma NetCDF comment": null, 
    "CCCma target vertical grid": null, 
    "CCCma target horizontal grid": null, 
    "Include only for": null, 
    "Exclude for": null, 
    "long_name": "Sea-Ice Area Percentage (Ocean Grid)", 
    "units": "%", 
    "description": "Percentage of grid cell covered by sea ice", 
    "comment": "Percentage of grid cell covered by sea ice", 
    "out_name": "siconc", 
    "standard_name": "sea_ice_area_fraction", 
    "cell_methods": "area: mean where sea time: mean", 
    "positive": null, 
    "type": "real", 
    "dimensions": "longitude latitude time typesi", 
    "modeling_realm": "seaIce", 
    "frequency": "day", 
    "cell_measures": "area: areacello", 
    "valid_min": -0.001, 
    "valid_max": 100.001, 
    "ok_min_mean_abs": 1.0, 
    "ok_max_mean_abs": 40.0, 
    "priority": 1.0, 
    "MIPs (requesting)": "  CFMIP(1,1,1,1,1), CMIP(1,1,1,1,1,1,1), CORDEX(1), DAMIP(1,1), DCPP(3), HighResMIP(1,1,1), PAMIP(3), SIMIP(1,1,1,1), VolMIP(1)", 
    "experiments": "  abrupt-4xCO2 (CFMIP:1,CMIP:1,SIMIP:1), amip (CFMIP:1,CMIP:1,HighResMIP:1), 1pctCO2 (CFMIP:1,CMIP:1,SIMIP:1), historical (CFMIP:1,CMIP:1,CMIP:1,DAMIP:1,HighResMIP:1,SIMIP:1,DCPP:3,PAMIP:3), piControl (CFMIP:1,CMIP:1,CMIP:1,CORDEX:1,DAMIP:1,HighResMIP:1,SIMIP:1,VolMIP:1)"
  }, 
  "siconca": {
    "CMOR Name": "siconca", 
    "CMOR Name, any freq": "siconca", 
    "CCCma check": "Not in the SIMIP paper, DY", 
    "CCCma hist file": null, 
    "CCCma hist var names": null, 
    "CCCma hist var frequency": null, 
    "CCCma TS var name": " sicn", 
    "CCCma diag file": "dd", 
    "CCCma units": null, 
    "CCCma optional deck": "mltby100_sicn", 
    "CCCma comment": null, 
    "CCCma NetCDF comment": null, 
    "CCCma target vertical grid": null, 
    "CCCma target horizontal grid": "atmos_grid", 
    "Include only for": null, 
    "Exclude for": null, 
    "long_name": "Sea-Ice Area Percentage (Atmospheric Grid)", 
    "units": "%", 
    "description": "Percentage of grid cell covered by sea ice", 
    "comment": "Percentage of grid cell covered by sea ice", 
    "out_name": "siconca", 
    "standard_name": "sea_ice_area_fraction", 
    "cell_methods": "area: time: mean", 
    "positive": null, 
    "type": "real", 
    "dimensions": "longitude latitude time typesi", 
    "modeling_realm": "seaIce", 
    "frequency": "day", 
    "cell_measures": "area: areacella", 
    "valid_min": null, 
    "valid_max": null, 
    "ok_min_mean_abs": null, 
    "ok_max_mean_abs": null, 
    "priority": 1.0, 
    "MIPs (requesting)": "  CMIP(1,1,1,1,1), SIMIP(1,1,1,1)", 
    "experiments": "  abrupt-4xCO2 (CMIP:1,SIMIP:1), amip (CMIP:1), 1pctCO2 (CMIP:1,SIMIP:1), historical (CMIP:1,SIMIP:1), piControl (CMIP:1,SIMIP:1)"
  }, 
  "sisnthick": {
    "CMOR Name": "sisnthick", 
    "CMOR Name, any freq": "sisnthick", 
    "CCCma check": "DY; MS.", 
    "CCCma hist file": "1d_icemod", 
    "CCCma hist var names": null, 
    "CCCma hist var frequency": null, 
    "CCCma TS var name": " isnowthi siconc", 
    "CCCma diag file": "1d_icemod", 
    "CCCma units": " m ", 
    "CCCma optional deck": "divtwo_fillmissing", 
    "CCCma comment": "1. Added in nemo code by DY; CMIP6 requests thickness of snow averaged over the snow-covered part of the sea ice. snowthic_cea (i.e., isnowthi) = hsnif * fr_i (at each time steps), where hsnif is snow thickness and fr_i is snow fraction which is same as ice fraction. 2. Post-processing: (1) isnowthi / siconc (if siconc > 0.0; both icethic_cea and siconc are daily means); (2) ice-free grid cells (currently zeros) to be filled with missing value.", 
    "CCCma NetCDF comment": null, 
    "CCCma target vertical grid": null, 
    "CCCma target horizontal grid": null, 
    "Include only for": null, 
    "Exclude for": null, 
    "long_name": "Snow Thickness", 
    "units": "m", 
    "description": "Actual thickness of snow (snow volume divided by snow-covered area)", 
    "comment": "Actual thickness of snow (snow volume divided by snow-covered area)", 
    "out_name": "sisnthick", 
    "standard_name": "surface_snow_thickness", 
    "cell_methods": "area: mean where snow over sea_ice area: time: mean where sea_ice", 
    "positive": null, 
    "type": "real", 
    "dimensions": "longitude latitude time", 
    "modeling_realm": "seaIce", 
    "frequency": "day", 
    "cell_measures": "area: areacello", 
    "valid_min": null, 
    "valid_max": null, 
    "ok_min_mean_abs": null, 
    "ok_max_mean_abs": null, 
    "priority": 1.0, 
    "MIPs (requesting)": "  SIMIP(1,1,1,1)", 
    "experiments": "  abrupt-4xCO2 (SIMIP:1), 1pctCO2 (SIMIP:1), historical (SIMIP:1), piControl (SIMIP:1)"
  }, 
  "sispeed": {
    "CMOR Name": "sispeed", 
    "CMOR Name, any freq": "sispeed", 
    "CCCma check": "DY; MS.", 
    "CCCma hist file": "1d_icemod", 
    "CCCma hist var names": null, 
    "CCCma hist var frequency": null, 
    "CCCma TS var name": " ivel_cea siconc", 
    "CCCma diag file": "1d_icemod", 
    "CCCma units": " m s-1 ", 
    "CCCma optional deck": "divtwo_fillmissing", 
    "CCCma comment": "1. Added in nemo code by DY; CMIP6 requests area-weighted average; ivel_cea already considers fr_i. 2. Post-processing: (1) ivel_cea / siconc (if siconc > 0.0, both ivel_cea and siconc are daily means); (2) ice-free grid cells (currently zeros) to be filed with missing values. ", 
    "CCCma NetCDF comment": null, 
    "CCCma target vertical grid": null, 
    "CCCma target horizontal grid": null, 
    "Include only for": null, 
    "Exclude for": null, 
    "long_name": "Sea-Ice Speed", 
    "units": "m s-1", 
    "description": "Speed of ice (i.e. mean absolute velocity) to account for back-and-forth movement of the ice", 
    "comment": "Speed of ice (i.e. mean absolute velocity) to account for back-and-forth movement of the ice", 
    "out_name": "sispeed", 
    "standard_name": "sea_ice_speed", 
    "cell_methods": "area: time: mean where sea_ice (comment: mask=siconc)", 
    "positive": null, 
    "type": "real", 
    "dimensions": "longitude latitude time", 
    "modeling_realm": "seaIce", 
    "frequency": "day", 
    "cell_measures": "area: areacello", 
    "valid_min": null, 
    "valid_max": null, 
    "ok_min_mean_abs": null, 
    "ok_max_mean_abs": null, 
    "priority": 1.0, 
    "MIPs (requesting)": "  SIMIP(1,1,1,1)", 
    "experiments": "  abrupt-4xCO2 (SIMIP:1), 1pctCO2 (SIMIP:1), historical (SIMIP:1), piControl (SIMIP:1)"
  }, 
  "sitemptop": {
    "CMOR Name": "sitemptop", 
    "CMOR Name, any freq": "sitemptop", 
    "CCCma check": "DY; MS.", 
    "CCCma hist file": "1d_icemod", 
    "CCCma hist var names": null, 
    "CCCma hist var frequency": null, 
    "CCCma TS var name": " sitemptop_cea siconc", 
    "CCCma diag file": "1d_icemod", 
    "CCCma units": " K ", 
    "CCCma optional deck": "divtwo_fillmissing", 
    "CCCma comment": "1. Added in nemo code by DY; CMIP6 requests area-weighted average; sitemptop_cea = sist * fr_i, where sist is ice surface temperature and fr_i is ice fraction. 2. Post-processing: (1) sitemptop_cea / siconc (if siconc > 0.0, both sitemptop_cea and siconc are daily means); (2) ice-free grid cells (currently zeros) to be filled with missing values. ", 
    "CCCma NetCDF comment": null, 
    "CCCma target vertical grid": null, 
    "CCCma target horizontal grid": null, 
    "Include only for": null, 
    "Exclude for": null, 
    "long_name": "Surface Temperature of Sea Ice", 
    "units": "K", 
    "description": "Report surface temperature of snow where snow covers the sea ice.", 
    "comment": "Report surface temperature of snow where snow covers the sea ice.", 
    "out_name": "sitemptop", 
    "standard_name": "sea_ice_surface_temperature", 
    "cell_methods": "area: time: mean where sea_ice (comment: mask=siconc)", 
    "positive": null, 
    "type": "real", 
    "dimensions": "longitude latitude time", 
    "modeling_realm": "seaIce", 
    "frequency": "day", 
    "cell_measures": "area: areacello", 
    "valid_min": null, 
    "valid_max": null, 
    "ok_min_mean_abs": null, 
    "ok_max_mean_abs": null, 
    "priority": 1.0, 
    "MIPs (requesting)": "  DCPP(3), PAMIP(3), SIMIP(1,1,1,1)", 
    "experiments": "  abrupt-4xCO2 (SIMIP:1), 1pctCO2 (SIMIP:1), historical (SIMIP:1,DCPP:3,PAMIP:3), piControl (SIMIP:1)"
  }, 
  "sithick": {
    "CMOR Name": "sithick", 
    "CMOR Name, any freq": "sithick", 
    "CCCma check": "DY; MS.", 
    "CCCma hist file": "1d_icemod", 
    "CCCma hist var names": null, 
    "CCCma hist var frequency": null, 
    "CCCma TS var name": " iicethic siconc", 
    "CCCma diag file": "1d_icemod", 
    "CCCma units": " m ", 
    "CCCma optional deck": " divtwo_fillmissing", 
    "CCCma comment": "1. Added in nemo code by DY; CMIP6 requests thickness of sea ice averaged over ice-covered part of a given grid cell; icethic_cea (i.e.,iicethic) = hicif * fr_i (at each time steps), where hicif is ice thickness and fr_i (i.e., siconc) is ice fraction. 2. Post-processing: (1) iicethic / siconc (if siconc > 0.0; both iicethic and siconc are daily means); (2) ice-free grid cells (currently zeros) to be filled with missing values. ", 
    "CCCma NetCDF comment": null, 
    "CCCma target vertical grid": null, 
    "CCCma target horizontal grid": null, 
    "Include only for": null, 
    "Exclude for": null, 
    "long_name": "Sea Ice Thickness", 
    "units": "m", 
    "description": "Actual (floe) thickness of sea ice (NOT volume divided by grid area as was done in CMIP5)", 
    "comment": "Actual (floe) thickness of sea ice (NOT volume divided by grid area as was done in CMIP5)", 
    "out_name": "sithick", 
    "standard_name": "sea_ice_thickness", 
    "cell_methods": "area: time: mean where sea_ice (comment: mask=siconc)", 
    "positive": null, 
    "type": "real", 
    "dimensions": "longitude latitude time", 
    "modeling_realm": "seaIce ocean", 
    "frequency": "day", 
    "cell_measures": "area: areacello", 
    "valid_min": -0.001, 
    "valid_max": 200.0, 
    "ok_min_mean_abs": 0.05, 
    "ok_max_mean_abs": 4.0, 
    "priority": 1.0, 
    "MIPs (requesting)": "  CFMIP(1,1,1,1,1), CMIP(1,1,1), DAMIP(1,1), HighResMIP(1,1,1), SIMIP(1,1,1,1), VolMIP(1)", 
    "experiments": "  abrupt-4xCO2 (CFMIP:1,SIMIP:1), amip (CFMIP:1,CMIP:1,HighResMIP:1), 1pctCO2 (CFMIP:1,SIMIP:1), historical (CFMIP:1,CMIP:1,DAMIP:1,HighResMIP:1,SIMIP:1), piControl (CFMIP:1,CMIP:1,DAMIP:1,HighResMIP:1,SIMIP:1,VolMIP:1)"
  }, 
  "sitimefrac": {
    "CMOR Name": "sitimefrac", 
    "CMOR Name, any freq": "sitimefrac", 
    "CCCma check": "DY; MS.", 
    "CCCma hist file": "1d_icemod", 
    "CCCma hist var names": null, 
    "CCCma hist var frequency": null, 
    "CCCma TS var name": " sitimefrac", 
    "CCCma diag file": "1d_icemod", 
    "CCCma units": "1", 
    "CCCma optional deck": null, 
    "CCCma comment": "1. Added in nemo code by DY. ", 
    "CCCma NetCDF comment": null, 
    "CCCma target vertical grid": null, 
    "CCCma target horizontal grid": null, 
    "Include only for": null, 
    "Exclude for": null, 
    "long_name": "Fraction of Time Steps with Sea Ice", 
    "units": "1", 
    "description": "Fraction of time steps of the averaging period during which sea ice is present (siconc >0 ) in a grid cell", 
    "comment": "Fraction of time steps of the averaging period during which sea ice is present (siconc >0 ) in a grid cell", 
    "out_name": "sitimefrac", 
    "standard_name": "fraction_of_time_with_sea_ice_area_fraction_above_threshold", 
    "cell_methods": "area: mean where sea time: mean", 
    "positive": null, 
    "type": "real", 
    "dimensions": "longitude latitude time", 
    "modeling_realm": "seaIce", 
    "frequency": "day", 
    "cell_measures": "area: areacello", 
    "valid_min": null, 
    "valid_max": null, 
    "ok_min_mean_abs": null, 
    "ok_max_mean_abs": null, 
    "priority": 1.0, 
    "MIPs (requesting)": "  SIMIP(1,1,1,1)", 
    "experiments": "  abrupt-4xCO2 (SIMIP:1), 1pctCO2 (SIMIP:1), historical (SIMIP:1), piControl (SIMIP:1)"
  }, 
  "siu": {
    "CMOR Name": "siu", 
    "CMOR Name, any freq": "siu", 
    "CCCma check": "DY; MS.", 
    "CCCma hist file": "1d_grid_u_ar6", 
    "CCCma hist var names": null, 
    "CCCma hist var frequency": null, 
    "CCCma TS var name": " siu_cea fr_iu ", 
    "CCCma diag file": "1d_grid_u", 
    "CCCma units": " m s-1 ", 
    "CCCma optional deck": " divtwo_fillmissing", 
    "CCCma comment": "1. Added in nemo code by DY; CMIP6 requests area-weighted average; siu_cea = u_ice * fr_iu, where u_ice is ice velocity along i-axis and fr_iu is ice fraction at u grid. 2. Post-processing: (1) siu_cea / fr_iu (if fr_iu > 0.0, both siu_cea and fr_iu are daily means); (2) ice-free grid cells (currently zeros) to be filled with missing values.", 
    "CCCma NetCDF comment": null, 
    "CCCma target vertical grid": null, 
    "CCCma target horizontal grid": null, 
    "Include only for": null, 
    "Exclude for": null, 
    "long_name": "X-Component of Sea-Ice Velocity", 
    "units": "m s-1", 
    "description": "The x-velocity of ice on native model grid", 
    "comment": "The x-velocity of ice on native model grid", 
    "out_name": "siu", 
    "standard_name": "sea_ice_x_velocity", 
    "cell_methods": "area: time: mean where sea_ice (comment: mask=siconc)", 
    "positive": null, 
    "type": "real", 
    "dimensions": "longitude latitude time", 
    "modeling_realm": "seaIce", 
    "frequency": "day", 
    "cell_measures": "--MODEL", 
    "valid_min": null, 
    "valid_max": null, 
    "ok_min_mean_abs": null, 
    "ok_max_mean_abs": null, 
    "priority": 1.0, 
    "MIPs (requesting)": "  CFMIP(1,1,1,1,1), CMIP(1,1,1), DAMIP(1,1), HighResMIP(1,1,1), SIMIP(1,1,1,1), VolMIP(1)", 
    "experiments": "  abrupt-4xCO2 (CFMIP:1,SIMIP:1), amip (CFMIP:1,CMIP:1,HighResMIP:1), 1pctCO2 (CFMIP:1,SIMIP:1), historical (CFMIP:1,CMIP:1,DAMIP:1,HighResMIP:1,SIMIP:1), piControl (CFMIP:1,CMIP:1,DAMIP:1,HighResMIP:1,SIMIP:1,VolMIP:1)"
  }, 
  "siv": {
    "CMOR Name": "siv", 
    "CMOR Name, any freq": "siv", 
    "CCCma check": "DY; MS.", 
    "CCCma hist file": "1d_grid_v_ar6", 
    "CCCma hist var names": null, 
    "CCCma hist var frequency": null, 
    "CCCma TS var name": " siv_cea fr_iv ", 
    "CCCma diag file": "1d_grid_v", 
    "CCCma units": " m s-1 ", 
    "CCCma optional deck": " divtwo_fillmissing", 
    "CCCma comment": "1. Added in nemo vode by DY; CMIP6 requests area-weighted average; siv_cea = v_ice * fr_iv, where v_ice is ice velocity along j-axis and fr_iv is ice fraction at v grid. 2. Post-processing: siv_cea / fr_iv (if fr_iv > 0.0, both siv_cea and fr_iv are daily means); (2) ice-free grid cells (currently zeros) to be filled with missing values. ", 
    "CCCma NetCDF comment": "Note that there exist unphysical values at j=291 that are filled with missing values. ", 
    "CCCma target vertical grid": null, 
    "CCCma target horizontal grid": null, 
    "Include only for": null, 
    "Exclude for": null, 
    "long_name": "Y-Component of Sea-Ice Velocity", 
    "units": "m s-1", 
    "description": "The y-velocity of ice on native model grid", 
    "comment": "The y-velocity of ice on native model grid", 
    "out_name": "siv", 
    "standard_name": "sea_ice_y_velocity", 
    "cell_methods": "area: time: mean where sea_ice (comment: mask=siconc)", 
    "positive": null, 
    "type": "real", 
    "dimensions": "longitude latitude time", 
    "modeling_realm": "seaIce", 
    "frequency": "day", 
    "cell_measures": "--MODEL", 
    "valid_min": null, 
    "valid_max": null, 
    "ok_min_mean_abs": null, 
    "ok_max_mean_abs": null, 
    "priority": 1.0, 
    "MIPs (requesting)": "  CFMIP(1,1,1,1,1), CMIP(1,1,1), DAMIP(1,1), HighResMIP(1,1,1), SIMIP(1,1,1,1), VolMIP(1)", 
    "experiments": "  abrupt-4xCO2 (CFMIP:1,SIMIP:1), amip (CFMIP:1,CMIP:1,HighResMIP:1), 1pctCO2 (CFMIP:1,SIMIP:1), historical (CFMIP:1,CMIP:1,DAMIP:1,HighResMIP:1,SIMIP:1), piControl (CFMIP:1,CMIP:1,DAMIP:1,HighResMIP:1,SIMIP:1,VolMIP:1)"
  }
}