{
  "_metadata_": {
    "Source file": "output_variables_dreq01.00.31__BACKUP_26Mar2021_18h26m02sUTC.xlsx", 
    "MIP table": "Efx"
  }, 
  "clayfrac": {
    "CMOR Name": "clayfrac", 
    "CMOR Name, any freq": "clayfrac", 
    "CCCma check": null, 
    "CCCma hist file": null, 
    "CCCma hist var names": null, 
    "CCCma hist var frequency": null, 
    "CCCma TS var name": null, 
    "CCCma diag file": null, 
    "CCCma units": null, 
    "CCCma optional deck": null, 
    "CCCma comment": null, 
    "CCCma NetCDF comment": null, 
    "CCCma target vertical grid": null, 
    "CCCma target horizontal grid": null, 
    "Include only for": null, 
    "Exclude for": null, 
    "long_name": "Clay Fraction", 
    "units": "1", 
    "description": "Clay Fraction", 
    "comment": "\"Volume fraction\" is used in the construction volume_fraction_of_X_in_Y, where X is a material constituent of Y.", 
    "out_name": "clayfrac", 
    "standard_name": "volume_fraction_of_clay_in_soil", 
    "cell_methods": "area: mean where land", 
    "positive": null, 
    "type": "real", 
    "dimensions": "longitude latitude sdepth", 
    "modeling_realm": "land", 
    "frequency": "fx", 
    "cell_measures": "area: areacella", 
    "valid_min": null, 
    "valid_max": null, 
    "ok_min_mean_abs": null, 
    "ok_max_mean_abs": null, 
    "priority": 1.0, 
    "MIPs (requesting)": "  LS3MIP(1)", 
    "experiments": "  historical (LS3MIP:1)"
  }, 
  "fldcapacity": {
    "CMOR Name": "fldcapacity", 
    "CMOR Name, any freq": "fldcapacity", 
    "CCCma check": null, 
    "CCCma hist file": null, 
    "CCCma hist var names": null, 
    "CCCma hist var frequency": null, 
    "CCCma TS var name": null, 
    "CCCma diag file": null, 
    "CCCma units": null, 
    "CCCma optional deck": null, 
    "CCCma comment": null, 
    "CCCma NetCDF comment": null, 
    "CCCma target vertical grid": null, 
    "CCCma target horizontal grid": null, 
    "Include only for": null, 
    "Exclude for": null, 
    "long_name": "Field Capacity", 
    "units": "%", 
    "description": "Field Capacity", 
    "comment": "The field capacity of soil is the maximum content of water it can retain against gravitational drainage. Provide as a percentage of the soil volume.", 
    "out_name": "fldcapacity", 
    "standard_name": "volume_fraction_of_condensed_water_in_soil_at_field_capacity", 
    "cell_methods": "area: mean where land", 
    "positive": null, 
    "type": "real", 
    "dimensions": "longitude latitude sdepth", 
    "modeling_realm": "land", 
    "frequency": "fx", 
    "cell_measures": "area: areacella", 
    "valid_min": null, 
    "valid_max": null, 
    "ok_min_mean_abs": null, 
    "ok_max_mean_abs": null, 
    "priority": 1.0, 
    "MIPs (requesting)": "  LS3MIP(1)", 
    "experiments": "  historical (LS3MIP:1)"
  }, 
  "ksat": {
    "CMOR Name": "ksat", 
    "CMOR Name, any freq": "ksat", 
    "CCCma check": null, 
    "CCCma hist file": null, 
    "CCCma hist var names": null, 
    "CCCma hist var frequency": null, 
    "CCCma TS var name": null, 
    "CCCma diag file": null, 
    "CCCma units": null, 
    "CCCma optional deck": null, 
    "CCCma comment": null, 
    "CCCma NetCDF comment": null, 
    "CCCma target vertical grid": null, 
    "CCCma target horizontal grid": null, 
    "Include only for": null, 
    "Exclude for": null, 
    "long_name": "Saturated Hydraulic Conductivity", 
    "units": "micron s-1", 
    "description": "Saturated Hydraulic Conductivity", 
    "comment": "Hydraulic conductivity is the constant k in Darcy's Law q=-k grad h for fluid flow q (volume transport per unit area i.e. velocity) through a porous medium, where h is the hydraulic head (pressure expressed as an equivalent depth of water).", 
    "out_name": "ksat", 
    "standard_name": "soil_hydraulic_conductivity_at_saturation", 
    "cell_methods": "area: mean where land", 
    "positive": null, 
    "type": "real", 
    "dimensions": "longitude latitude sdepth", 
    "modeling_realm": "land", 
    "frequency": "fx", 
    "cell_measures": "area: areacella", 
    "valid_min": null, 
    "valid_max": null, 
    "ok_min_mean_abs": null, 
    "ok_max_mean_abs": null, 
    "priority": 1.0, 
    "MIPs (requesting)": "  LS3MIP(1)", 
    "experiments": "  historical (LS3MIP:1)"
  }, 
  "rootdsl": {
    "CMOR Name": "rootdsl", 
    "CMOR Name, any freq": "rootdsl", 
    "CCCma check": null, 
    "CCCma hist file": null, 
    "CCCma hist var names": null, 
    "CCCma hist var frequency": null, 
    "CCCma TS var name": null, 
    "CCCma diag file": null, 
    "CCCma units": null, 
    "CCCma optional deck": null, 
    "CCCma comment": null, 
    "CCCma NetCDF comment": null, 
    "CCCma target vertical grid": null, 
    "CCCma target horizontal grid": null, 
    "Include only for": null, 
    "Exclude for": null, 
    "long_name": "Root Distribution", 
    "units": "kg m-2", 
    "description": "Root Distribution", 
    "comment": "Mass of carbon in roots.", 
    "out_name": "rootdsl", 
    "standard_name": "root_mass_content_of_carbon", 
    "cell_methods": "area: mean where land", 
    "positive": null, 
    "type": "real", 
    "dimensions": "longitude latitude sdepth", 
    "modeling_realm": "land", 
    "frequency": "fx", 
    "cell_measures": "area: areacella", 
    "valid_min": null, 
    "valid_max": null, 
    "ok_min_mean_abs": null, 
    "ok_max_mean_abs": null, 
    "priority": 1.0, 
    "MIPs (requesting)": "  LS3MIP(1)", 
    "experiments": "  historical (LS3MIP:1)"
  }, 
  "sandfrac": {
    "CMOR Name": "sandfrac", 
    "CMOR Name, any freq": "sandfrac", 
    "CCCma check": null, 
    "CCCma hist file": null, 
    "CCCma hist var names": null, 
    "CCCma hist var frequency": null, 
    "CCCma TS var name": null, 
    "CCCma diag file": null, 
    "CCCma units": null, 
    "CCCma optional deck": null, 
    "CCCma comment": null, 
    "CCCma NetCDF comment": null, 
    "CCCma target vertical grid": null, 
    "CCCma target horizontal grid": null, 
    "Include only for": null, 
    "Exclude for": null, 
    "long_name": "Sand Fraction", 
    "units": "1", 
    "description": "Sand Fraction", 
    "comment": "\"Volume fraction\" is used in the construction volume_fraction_of_X_in_Y, where X is a material constituent of Y.", 
    "out_name": "sandfrac", 
    "standard_name": "volume_fraction_of_sand_in_soil", 
    "cell_methods": "area: mean where land", 
    "positive": null, 
    "type": "real", 
    "dimensions": "longitude latitude sdepth", 
    "modeling_realm": "land", 
    "frequency": "fx", 
    "cell_measures": "area: areacella", 
    "valid_min": null, 
    "valid_max": null, 
    "ok_min_mean_abs": null, 
    "ok_max_mean_abs": null, 
    "priority": 1.0, 
    "MIPs (requesting)": "  LS3MIP(1)", 
    "experiments": "  historical (LS3MIP:1)"
  }, 
  "sftflf": {
    "CMOR Name": "sftflf", 
    "CMOR Name, any freq": "sftflf", 
    "CCCma check": null, 
    "CCCma hist file": null, 
    "CCCma hist var names": null, 
    "CCCma hist var frequency": null, 
    "CCCma TS var name": null, 
    "CCCma diag file": null, 
    "CCCma units": null, 
    "CCCma optional deck": null, 
    "CCCma comment": null, 
    "CCCma NetCDF comment": null, 
    "CCCma target vertical grid": null, 
    "CCCma target horizontal grid": null, 
    "Include only for": null, 
    "Exclude for": null, 
    "long_name": "Floating Ice Shelf Area Percentage", 
    "units": "%", 
    "description": "This is needed to distinguish between grounded glaciated ice (grounded = ice sheet and glacier) and ice shelves (floating over sea water), since land_ice is by definition ice sheet, glacier and ice shelves", 
    "comment": "Percentage of grid cell covered by floating ice shelf, the component of the ice sheet that is flowing over sea water", 
    "out_name": "sftflf", 
    "standard_name": "floating_ice_shelf_area_fraction", 
    "cell_methods": "area: mean", 
    "positive": null, 
    "type": "real", 
    "dimensions": "longitude latitude", 
    "modeling_realm": "landIce", 
    "frequency": "fx", 
    "cell_measures": "area: areacella", 
    "valid_min": null, 
    "valid_max": null, 
    "ok_min_mean_abs": null, 
    "ok_max_mean_abs": null, 
    "priority": 1.0, 
    "MIPs (requesting)": "  CMIP(1,1,1,1,1), ISMIP6(2,2,2,2)", 
    "experiments": "  abrupt-4xCO2 (CMIP:1), amip (CMIP:1,ISMIP6:2), 1pctCO2 (CMIP:1,ISMIP6:2), historical (CMIP:1,ISMIP6:2), piControl (CMIP:1,ISMIP6:2)"
  }, 
  "sftgrf": {
    "CMOR Name": "sftgrf", 
    "CMOR Name, any freq": "sftgrf", 
    "CCCma check": null, 
    "CCCma hist file": null, 
    "CCCma hist var names": null, 
    "CCCma hist var frequency": null, 
    "CCCma TS var name": null, 
    "CCCma diag file": null, 
    "CCCma units": null, 
    "CCCma optional deck": null, 
    "CCCma comment": null, 
    "CCCma NetCDF comment": null, 
    "CCCma target vertical grid": null, 
    "CCCma target horizontal grid": null, 
    "Include only for": null, 
    "Exclude for": null, 
    "long_name": "Grounded Ice Sheet Area Percentage", 
    "units": "%", 
    "description": "This is needed to distinguish between grounded glaciated ice (grounded = ice sheet and glacier) and ice shelves (floating over sea water), since land_ice is by definition ice sheet, glacier and ice shelves", 
    "comment": "Percentage of grid cell covered by grounded ice sheet", 
    "out_name": "sftgrf", 
    "standard_name": "grounded_ice_sheet_area_fraction", 
    "cell_methods": "area: mean", 
    "positive": null, 
    "type": "real", 
    "dimensions": "longitude latitude", 
    "modeling_realm": "landIce", 
    "frequency": "fx", 
    "cell_measures": "area: areacella", 
    "valid_min": null, 
    "valid_max": null, 
    "ok_min_mean_abs": null, 
    "ok_max_mean_abs": null, 
    "priority": 1.0, 
    "MIPs (requesting)": "  CMIP(1,1,1,1,1), ISMIP6(1,1,1,1)", 
    "experiments": "  abrupt-4xCO2 (CMIP:1), amip (CMIP:1,ISMIP6:1), 1pctCO2 (CMIP:1,ISMIP6:1), historical (CMIP:1,ISMIP6:1), piControl (CMIP:1,ISMIP6:1)"
  }, 
  "siltfrac": {
    "CMOR Name": "siltfrac", 
    "CMOR Name, any freq": "siltfrac", 
    "CCCma check": null, 
    "CCCma hist file": null, 
    "CCCma hist var names": null, 
    "CCCma hist var frequency": null, 
    "CCCma TS var name": null, 
    "CCCma diag file": null, 
    "CCCma units": null, 
    "CCCma optional deck": null, 
    "CCCma comment": null, 
    "CCCma NetCDF comment": null, 
    "CCCma target vertical grid": null, 
    "CCCma target horizontal grid": null, 
    "Include only for": null, 
    "Exclude for": null, 
    "long_name": "Silt Fraction", 
    "units": "1", 
    "description": "Volume fraction of silt in soil", 
    "comment": "Volume fraction of silt in soil", 
    "out_name": "siltfrac", 
    "standard_name": "volume_fraction_of_silt_in_soil", 
    "cell_methods": "area: mean where land", 
    "positive": null, 
    "type": "real", 
    "dimensions": "longitude latitude sdepth", 
    "modeling_realm": "atmos", 
    "frequency": "fx", 
    "cell_measures": "area: areacella", 
    "valid_min": null, 
    "valid_max": null, 
    "ok_min_mean_abs": null, 
    "ok_max_mean_abs": null, 
    "priority": 1.0, 
    "MIPs (requesting)": "  LS3MIP(1)", 
    "experiments": "  historical (LS3MIP:1)"
  }, 
  "slthick": {
    "CMOR Name": "slthick", 
    "CMOR Name, any freq": "slthick", 
    "CCCma check": null, 
    "CCCma hist file": null, 
    "CCCma hist var names": null, 
    "CCCma hist var frequency": null, 
    "CCCma TS var name": null, 
    "CCCma diag file": null, 
    "CCCma units": null, 
    "CCCma optional deck": null, 
    "CCCma comment": null, 
    "CCCma NetCDF comment": null, 
    "CCCma target vertical grid": null, 
    "CCCma target horizontal grid": null, 
    "Include only for": null, 
    "Exclude for": null, 
    "long_name": "Thickness of Soil Layers", 
    "units": "m", 
    "description": "Thickness of Soil Layers", 
    "comment": "\"Thickness\" means the vertical extent of a layer. \"Cell\" refers to a model grid cell.", 
    "out_name": "slthick", 
    "standard_name": "cell_thickness", 
    "cell_methods": "area: mean where land", 
    "positive": null, 
    "type": "real", 
    "dimensions": "longitude latitude sdepth", 
    "modeling_realm": "land", 
    "frequency": "fx", 
    "cell_measures": "area: areacella", 
    "valid_min": null, 
    "valid_max": null, 
    "ok_min_mean_abs": null, 
    "ok_max_mean_abs": null, 
    "priority": 1.0, 
    "MIPs (requesting)": "  LS3MIP(1)", 
    "experiments": "  historical (LS3MIP:1)"
  }, 
  "vegHeight": {
    "CMOR Name": "vegHeight", 
    "CMOR Name, any freq": "vegHeight", 
    "CCCma check": null, 
    "CCCma hist file": null, 
    "CCCma hist var names": null, 
    "CCCma hist var frequency": null, 
    "CCCma TS var name": null, 
    "CCCma diag file": null, 
    "CCCma units": null, 
    "CCCma optional deck": null, 
    "CCCma comment": null, 
    "CCCma NetCDF comment": null, 
    "CCCma target vertical grid": null, 
    "CCCma target horizontal grid": null, 
    "Include only for": null, 
    "Exclude for": null, 
    "long_name": "Height of the Vegetation Canopy", 
    "units": "m", 
    "description": "Vegetation height averaged over all vegetation types and over the vegetated fraction of a grid cell.", 
    "comment": "Vegetation height averaged over all vegetation types and over the vegetated fraction of a grid cell.", 
    "out_name": "vegHeight", 
    "standard_name": "canopy_height", 
    "cell_methods": "area: mean where land", 
    "positive": null, 
    "type": "real", 
    "dimensions": "longitude latitude", 
    "modeling_realm": "land", 
    "frequency": "fx", 
    "cell_measures": "area: areacella", 
    "valid_min": null, 
    "valid_max": null, 
    "ok_min_mean_abs": null, 
    "ok_max_mean_abs": null, 
    "priority": 2.0, 
    "MIPs (requesting)": "  CMIP(2,2,2,2,2), DCPP(2), PAMIP(2), PMIP(2,2,2,2,2)", 
    "experiments": "  abrupt-4xCO2 (CMIP:2,PMIP:2), amip (CMIP:2,PMIP:2), 1pctCO2 (CMIP:2,PMIP:2), historical (CMIP:2,DCPP:2,PAMIP:2,PMIP:2), piControl (CMIP:2,PMIP:2)"
  }, 
  "wilt": {
    "CMOR Name": "wilt", 
    "CMOR Name, any freq": "wilt", 
    "CCCma check": null, 
    "CCCma hist file": null, 
    "CCCma hist var names": null, 
    "CCCma hist var frequency": null, 
    "CCCma TS var name": null, 
    "CCCma diag file": null, 
    "CCCma units": null, 
    "CCCma optional deck": null, 
    "CCCma comment": null, 
    "CCCma NetCDF comment": null, 
    "CCCma target vertical grid": null, 
    "CCCma target horizontal grid": null, 
    "Include only for": null, 
    "Exclude for": null, 
    "long_name": "Wilting Point", 
    "units": "%", 
    "description": "Wilting Point", 
    "comment": "Percentage water content of soil by volume at the wilting point. The wilting point of soil is the water content below which plants cannot extract sufficient water to balance their loss through transpiration. ", 
    "out_name": "wilt", 
    "standard_name": "volume_fraction_of_condensed_water_in_soil_at_wilting_point", 
    "cell_methods": "area: mean where land", 
    "positive": null, 
    "type": "real", 
    "dimensions": "longitude latitude sdepth", 
    "modeling_realm": "land", 
    "frequency": "fx", 
    "cell_measures": "area: areacella", 
    "valid_min": null, 
    "valid_max": null, 
    "ok_min_mean_abs": null, 
    "ok_max_mean_abs": null, 
    "priority": 1.0, 
    "MIPs (requesting)": "  LS3MIP(1)", 
    "experiments": "  historical (LS3MIP:1)"
  }
}