{
  "_metadata_": {
    "Source file": "output_variables_dreq01.00.31__BACKUP_26Mar2021_18h26m02sUTC.xlsx", 
    "MIP table": "IfxGre"
  }, 
  "areacellg": {
    "CMOR Name": "areacellg", 
    "CMOR Name, any freq": "areacellg", 
    "CCCma check": null, 
    "CCCma hist file": null, 
    "CCCma hist var names": null, 
    "CCCma hist var frequency": null, 
    "CCCma TS var name": null, 
    "CCCma diag file": null, 
    "CCCma units": null, 
    "CCCma optional deck": null, 
    "CCCma comment": null, 
    "CCCma NetCDF comment": null, 
    "CCCma target vertical grid": null, 
    "CCCma target horizontal grid": null, 
    "Include only for": null, 
    "Exclude for": null, 
    "long_name": "Grid-Cell Area for Ice Sheet Variables", 
    "units": "m2", 
    "description": "Cell areas any grid used to report ice sheet variables. These cell areas should be defined to enable exact calculation of area integrals (e.g., of vertical fluxes of energy at the surface and top of the atmosphere)", 
    "comment": "Area of the target grid (not the interpolated area of the source grid).", 
    "out_name": "areacellg", 
    "standard_name": "cell_area", 
    "cell_methods": "area: sum", 
    "positive": null, 
    "type": "real", 
    "dimensions": "longitude latitude", 
    "modeling_realm": "land", 
    "frequency": "fx", 
    "cell_measures": null, 
    "valid_min": null, 
    "valid_max": null, 
    "ok_min_mean_abs": null, 
    "ok_max_mean_abs": null, 
    "priority": 1.0, 
    "MIPs (requesting)": "  ISMIP6(1,1,1,1)", 
    "experiments": "  amip (ISMIP6:1), 1pctCO2 (ISMIP6:1), historical (ISMIP6:1), piControl (ISMIP6:1)"
  }, 
  "hfgeoubed": {
    "CMOR Name": "hfgeoubed", 
    "CMOR Name, any freq": "hfgeoubed", 
    "CCCma check": null, 
    "CCCma hist file": null, 
    "CCCma hist var names": null, 
    "CCCma hist var frequency": null, 
    "CCCma TS var name": null, 
    "CCCma diag file": null, 
    "CCCma units": null, 
    "CCCma optional deck": null, 
    "CCCma comment": null, 
    "CCCma NetCDF comment": null, 
    "CCCma target vertical grid": null, 
    "CCCma target horizontal grid": null, 
    "Include only for": null, 
    "Exclude for": null, 
    "long_name": "Geothermal Heat Flux Beneath Land Ice", 
    "units": "W m-2", 
    "description": "Upward geothermal heat flux per unit area beneath land ice", 
    "comment": "Upward geothermal heat flux per unit area beneath land ice", 
    "out_name": "hfgeoubed", 
    "standard_name": "upward_geothermal_heat_flux_at_ground_level_in_land_ice", 
    "cell_methods": "area: mean where grounded_ice_sheet", 
    "positive": null, 
    "type": "real", 
    "dimensions": "xgre ygre", 
    "modeling_realm": "landIce", 
    "frequency": "fx", 
    "cell_measures": "area: areacellg", 
    "valid_min": null, 
    "valid_max": null, 
    "ok_min_mean_abs": null, 
    "ok_max_mean_abs": null, 
    "priority": 3.0, 
    "MIPs (requesting)": "  ISMIP6(3,3,3,3)", 
    "experiments": "  amip (ISMIP6:3), 1pctCO2 (ISMIP6:3), historical (ISMIP6:3), piControl (ISMIP6:3)"
  }, 
  "lithk": {
    "CMOR Name": "lithk", 
    "CMOR Name, any freq": "lithk", 
    "CCCma check": null, 
    "CCCma hist file": null, 
    "CCCma hist var names": null, 
    "CCCma hist var frequency": null, 
    "CCCma TS var name": null, 
    "CCCma diag file": null, 
    "CCCma units": null, 
    "CCCma optional deck": null, 
    "CCCma comment": null, 
    "CCCma NetCDF comment": null, 
    "CCCma target vertical grid": null, 
    "CCCma target horizontal grid": null, 
    "Include only for": null, 
    "Exclude for": null, 
    "long_name": "Ice Sheet Thickness", 
    "units": "m", 
    "description": "The thickness of the ice sheet", 
    "comment": "The thickness of the ice sheet", 
    "out_name": "lithk", 
    "standard_name": "land_ice_thickness", 
    "cell_methods": "area: mean where ice_sheet", 
    "positive": null, 
    "type": "real", 
    "dimensions": "xgre ygre", 
    "modeling_realm": "landIce", 
    "frequency": "fx", 
    "cell_measures": "area: areacellg", 
    "valid_min": null, 
    "valid_max": null, 
    "ok_min_mean_abs": null, 
    "ok_max_mean_abs": null, 
    "priority": 2.0, 
    "MIPs (requesting)": "  ISMIP6(2,2,2,2)", 
    "experiments": "  amip (ISMIP6:2), 1pctCO2 (ISMIP6:2), historical (ISMIP6:2), piControl (ISMIP6:2)"
  }, 
  "topg": {
    "CMOR Name": "topg", 
    "CMOR Name, any freq": "topg", 
    "CCCma check": null, 
    "CCCma hist file": null, 
    "CCCma hist var names": null, 
    "CCCma hist var frequency": null, 
    "CCCma TS var name": null, 
    "CCCma diag file": null, 
    "CCCma units": null, 
    "CCCma optional deck": null, 
    "CCCma comment": null, 
    "CCCma NetCDF comment": null, 
    "CCCma target vertical grid": null, 
    "CCCma target horizontal grid": null, 
    "Include only for": null, 
    "Exclude for": null, 
    "long_name": "Bedrock Altitude", 
    "units": "m", 
    "description": "The bedrock topography beneath the land ice", 
    "comment": "The bedrock topography beneath the land ice", 
    "out_name": "topg", 
    "standard_name": "bedrock_altitude", 
    "cell_methods": "area: mean where grounded_ice_sheet", 
    "positive": null, 
    "type": "real", 
    "dimensions": "xgre ygre", 
    "modeling_realm": "landIce", 
    "frequency": "fx", 
    "cell_measures": "area: areacellg", 
    "valid_min": null, 
    "valid_max": null, 
    "ok_min_mean_abs": null, 
    "ok_max_mean_abs": null, 
    "priority": 2.0, 
    "MIPs (requesting)": "  ISMIP6(2,2,2,2)", 
    "experiments": "  amip (ISMIP6:2), 1pctCO2 (ISMIP6:2), historical (ISMIP6:2), piControl (ISMIP6:2)"
  }
}